Case #1: 241860
Case #2: 139656
Case #3: 287661
Case #4: 10
Case #5: 999955
Case #6: 404550
Case #7: 376278
Case #8: 5000050000
Case #9: 0
Case #10: 220780
Case #11: 261003
Case #12: 411778
Case #13: 4447875291
Case #14: 378885
Case #15: 0
Case #16: 246753
Case #17: 141778
Case #18: 3
Case #19: 158203
Case #20: 18
Case #21: 4444789339
Case #22: 179700
Case #23: 9
Case #24: 176715
Case #25: 305371
Case #26: 271216
Case #27: 190653
Case #28: 427350
Case #29: 4442082364
Case #30: 170820
Case #31: 306153
Case #32: 1
Case #33: 365940
Case #34: 409060
Case #35: 240471
Case #36: 203203
Case #37: 246753
Case #38: 187578
Case #39: 193131
Case #40: 286146