1000
736 839
436 419
807 331
659 427
517 255
645 258
715 475
285 14
283 377
48 3
539 937
77 235
459 722
661 949
383 170
14 475
732 415
687 217
406 89
85 221
952 575
673 442
865 355
535 744
263 38
928 626
601 546
150 202
41 923
626 28
996 918
233 912
724 374
404 518
643 164
698 704
23 653
935 173
836 825
186 616
555 489
768 18
995 60
702 480
266 202
871 655
114 584
878 740
824 333
938 296
666 806
748 809
659 467
181 950
856 74
630 341
557 983
8 495
797 869
646 767
32 739
630 191
653 253
955 559
224 665
975 609
475 941
147 337
266 964
607 52
43 896
810 9
234 848
720 118
410 457
544 227
533 701
201 575
926 650
610 285
780 423
535 61
880 202
441 976
312 841
299 999
823 937
930 381
387 715
449 223
505 362
610 855
778 852
965 664
870 825
879 74
939 94
844 994
513 493
796 500
310 653
387 469
34 123
94 505
188 48
447 739
498 439
146 606
340 667
735 557
536 225
59 659
573 642
877 214
487 946
827 181
170 671
276 544
271 170
78 66
125 84
909 527
308 47
71 139
824 661
427 724
83 139
566 133
979 939
356 115
935 783
354 916
455 309
115 600
860 429
246 538
731 648
76 479
82 386
91 669
509 850
3 854
242 935
130 53
394 762
189 252
700 658
712 417
721 425
361 471
639 871
410 889
806 354
299 527
383 504
816 865
891 4
986 811
539 733
128 85
574 887
11 618
514 111
963 237
738 375
308 524
394 529
159 157
207 214
688 397
585 9
92 69
678 250
348 848
200 239
970 104
885 716
260 762
239 386
594 230
125 194
53 281
178 984
921 752
777 444
773 191
0 396
141 727
628 507
184 456
835 54
268 516
441 354
448 24
302 549
708 436
221 697
975 65
680 767
421 614
293 121
414 936
231 30
691 580
590 890
319 680
212 420
906 809
98 444
270 608
978 43
566 195
814 399
74 76
814 449
859 227
491 973
275 102
602 989
782 969
369 427
884 969
747 389
614 589
884 214
310 268
532 399
44 30
929 778
189 734
771 829
591 505
882 813
609 859
85 726
122 929
595 386
34 727
264 857
302 674
40 999
808 262
988 681
101 744
637 770
587 706
907 577
762 85
656 333
262 406
547 502
860 702
693 462
990 916
162 743
656 115
421 528
963 23
707 136
962 138
596 862
311 657
636 976
293 115
86 10
207 747
605 272
359 357
820 55
176 145
353 457
151 271
144 329
787 789
177 516
26 591
105 824
688 826
966 739
335 486
864 364
533 544
585 117
103 29
975 927
919 929
795 656
607 752
567 294
110 359
321 558
358 994
568 180
227 926
377 294
825 820
88 334
251 796
300 339
650 923
589 709
651 469
542 91
392 133
11 312
200 353
326 913
224 344
672 70
332 787
907 297
319 797
823 966
105 126
586 427
431 901
658 918
256 696
110 254
676 575
383 944
687 245
312 206
28 783
905 398
838 245
334 124
464 838
75 286
523 636
140 879
468 756
364 494
675 523
633 905
916 914
634 624
6 487
705 543
673 219
570 52
846 10
410 277
610 456
612 172
875 748
823 208
506 134
181 352
261 700
228 105
501 511
848 376
321 285
533 914
834 217
880 924
214 986
796 108
134 899
74 969
107 262
506 172
221 732
983 260
297 612
159 127
788 853
231 26
316 214
431 677
779 932
123 29
797 466
136 398
914 637
888 569
819 80
667 420
20 588
795 738
291 173
276 741
480 378
174 798
357 246
855 951
24 892
63 435
793 8
649 123
952 676
659 188
472 587
93 594
74 371
2 761
18 740
249 643
977 886
420 770
361 20
974 404
178 807
909 32
333 795
651 390
431 136
687 734
783 491
541 962
259 583
797 793
978 854
955 373
453 703
166 855
401 593
680 922
490 788
239 517
901 558
176 600
240 411
156 508
279 332
462 985
160 906
389 399
897 872
82 842
15 734
552 982
578 766
681 744
929 22
109 565
162 579
321 317
569 665
284 808
185 811
282 97
127 701
763 50
995 235
985 157
507 28
88 259
385 115
211 822
265 3
319 230
465 133
300 980
140 769
805 104
669 175
138 962
479 618
650 279
570 781
790 993
125 118
996 545
21 544
658 234
43 519
324 118
180 922
920 235
245 550
698 8
897 449
99 36
173 758
118 666
737 372
579 89
684 620
869 435
284 603
419 546
184 485
132 218
737 391
709 112
468 143
955 140
702 796
28 291
746 648
100 359
36 11
572 882
396 882
545 647
258 186
187 706
253 683
913 567
909 411
772 473
310 997
790 701
425 300
841 693
355 137
282 795
306 1000
118 279
488 989
60 323
847 904
723 452
476 412
401 483
669 872
999 373
575 308
980 758
628 151
966 63
909 429
471 90
744 826
644 279
357 891
575 512
791 391
303 657
307 472
1000 462
778 329
224 934
110 588
579 32
764 658
698 188
571 366
129 68
990 525
274 614
667 738
879 868
513 370
14 913
352 549
216 558
839 514
22 442
646 884
580 381
266 42
652 262
465 838
191 154
556 72
26 367
584 692
473 370
605 737
899 572
608 583
205 662
481 2
504 232
633 910
665 805
352 418
899 154
698 621
287 62
820 419
75 359
122 552
377 940
591 960
431 203
779 882
72 431
961 422
458 921
672 115
802 482
93 572
245 785
855 690
883 437
325 379
684 652
933 228
638 696
218 472
144 950
748 12
467 469
496 619
604 746
802 891
31 938
462 28
350 891
889 374
805 992
677 144
329 512
407 35
669 972
528 625
477 596
6 189
551 856
331 916
939 39
693 461
641 697
833 552
790 576
551 901
3 505
725 831
721 670
15 758
517 579
663 98
835 615
793 244
952 502
698 890
159 897
54 802
468 34
286 597
119 104
660 891
373 169
632 312
722 470
478 353
848 539
505 710
584 104
992 656
703 931
794 754
396 18
790 344
802 634
567 775
992 29
112 876
216 954
660 147
362 979
751 871
324 683
942 523
478 632
129 17
636 926
639 601
186 359
593 557
473 200
633 22
371 316
289 826
897 713
771 540
697 466
937 368
92 410
914 682
39 352
171 142
322 436
448 296
762 416
688 225
535 919
343 550
861 534
67 967
640 316
451 597
421 209
385 533
884 64
564 408
310 883
922 887
180 929
231 300
569 761
37 452
833 542
245 720
215 94
37 799
643 370
320 139
685 431
439 325
232 550
88 764
545 780
386 2
709 973
206 778
145 575
78 264
566 888
250 281
663 549
949 707
509 108
35 251
430 161
459 314
23 975
949 539
660 54
231 623
525 562
234 582
524 744
293 988
28 275
625 283
178 866
499 637
269 442
903 608
627 860
330 637
539 995
405 59
597 798
915 168
189 586
295 59
850 271
946 609
6 333
727 959
403 531
218 149
367 110
913 74
821 651
834 219
312 591
226 146
612 783
944 78
487 619
38 560
673 740
571 117
727 822
904 19
617 680
806 236
603 427
71 951
46 138
290 82
490 403
969 847
137 545
379 412
641 779
58 4
698 328
719 93
837 151
894 378
655 186
49 651
510 445
521 324
232 75
657 523
669 930
578 709
746 451
697 581
983 96
184 415
96 882
693 279
203 941
433 732
799 894
617 144
506 585
649 864
878 903
792 278
250 758
448 255
505 225
213 741
77 694
981 197
507 517
822 290
571 103
544 720
686 709
464 160
583 317
44 108
936 234
786 712
486 215
624 356
169 385
81 566
44 414
572 58
154 128
909 697
674 492
749 464
156 300
975 673
177 94
83 152
275 144
49 174
550 538
606 423
687 903
574 969
377 870
259 342
719 205
238 843
639 773
855 166
742 447
169 924
358 250
942 799
375 357
217 131
46 66
916 435
631 143
293 288
814 197
944 762
599 335
54 149
738 198
689 922
823 649
266 16
528 851
44 345
796 659
251 590
713 594
280 211
809 251
626 722
441 153
336 238
755 957
96 227
441 90
619 342
172 182
977 635
794 721
581 957
418 216
161 393
318 206
157 487
470 259
164 848
446 896
980 688
594 764
577 960
434 343
26 388
963 249
623 86
743 599
589 652
29 749
627 168
809 985
86 913
613 517
588 687
728 781
92 137
547 672
882 502
955 622
767 768
591 872
378 580
736 803
602 755
166 116
425 603
145 790
160 991
279 830
885 622
615 228
641 345
456 932
701 23
449 537
124 718
622 262
937 604
983 542
136 703
871 161
715 935
280 119
731 387
325 826
721 576
896 262
621 141
436 725
650 932
595 17
488 770
858 253
108 818
513 522
100 621
184 588
432 855
641 314
27 794
178 31
388 541
518 480
737 587
270 672
197 728
539 579
383 585
740 458
277 146
586 860
878 973
702 963
696 249
179 854
619 395
312 199
29 567
886 78
801 0
407 60
280 336
114 856
624 146
549 416
214 110
908 38
371 379
918 816
470 956
340 210
847 776
159 144
404 908
55 9
692 645
404 737
36 618
496 657
184 101
528 201
699 137
531 368
655 416
652 154
215 343
716 820
896 232
235 771
30 800
846 368
464 801
952 23
44 523
