100
9 17
51 3
83 3
26 87
7 73
71 33
78 18
72 61
42 26
14 10
47 72
46 61
15 78
78 24
2 95
27 39
6 39
54 7
42 96
21 9
41 9
9 66
27 34
93 100
9 74
84 73
11 88
56 50
68 34
75 86
84 35
97 64
52 60
88 30
80 4
98 61
9 62
35 66
58 55
37 1
44 35
65 94
80 45
43 17
82 5
86 2
60 19
20 34
38 41
15 62
13 3
38 70
37 73
60 30
5 72
79 82
52 22
52 16
75 90
39 14
26 2
99 43
18 69
97 48
59 64
64 97
15 53
72 71
91 59
36 62
53 57
100 48
82 94
27 68
47 81
73 1
84 95
11 8
94 36
61 67
39 92
100 53
81 64
29 90
19 24
59 5
85 23
55 24
85 19
23 40
37 7
46 78
10 95
1 86
43 77
23 84
75 64
56 66
72 54
30 55
