500
4
30
30
1
1
17
8
13
62
2
22
2
31
21
56
54
57
54
9
11
4
68
52
28
76
23
84
61
58
1
13
92
38
98
71
75
18
72
18
83
33
33
84
1
49
4
34
61
48
72
85
84
16
18
20
81
86
33
79
97
65
76
34
38
28
10
100
88
44
45
44
98
82
62
78
60
61
29
15
24
72
100
98
54
99
32
14
23
45
11
80
68
2
72
8
88
88
6
22
29
8
47
28
50
13
65
62
81
8
48
25
80
66
75
44
8
21
26
92
44
31
92
50
67
36
60
45
53
42
62
56
80
33
25
1
67
45
55
99
23
58
11
62
30
10
88
12
90
55
73
82
69
49
76
30
38
97
82
85
90
53
9
43
1
53
14
79
33
52
66
16
55
55
42
3
53
32
6
78
38
91
6
92
96
38
89
48
80
49
65
55
75
5
95
74
78
42
47
56
92
93
71
1
98
59
94
10
91
94
61
36
47
78
36
89
51
58
92
38
46
65
17
59
98
72
8
71
95
100
55
8
17
37
79
44
33
5
96
16
13
75
59
22
97
95
46
80
67
80
30
36
56
45
78
14
16
25
56
39
59
97
48
48
50
36
97
39
10
59
76
50
5
20
64
4
81
18
95
34
69
18
12
23
36
55
38
13
46
27
18
20
92
75
82
77
51
18
56
72
3
27
97
2
50
28
3
2
47
55
39
59
38
72
53
59
15
69
30
55
27
91
60
52
32
36
38
83
3
2
77
65
25
88
34
48
37
60
63
14
85
28
97
40
43
88
52
6
43
86
100
17
80
24
17
86
13
2
75
28
92
15
53
84
98
55
20
67
69
19
62
27
43
67
46
7
49
42
66
12
56
44
37
92
89
51
44
5
14
87
26
5
37
33
40
39
70
59
55
96
85
66
7
72
58
77
20
71
57
98
28
57
82
15
53
86
77
55
98
22
56
54
57
65
93
87
63
47
23
33
56
96
26
39
79
22
51
22
73
64
98
12
42
48
87
42
80
13
8
65
16
55
76
22
22
32
2
15
52
36
42
34
96
51
67
21
84
90
53
92
1
82
53
5
95
10
16
39
32
95
55
95
5
6
29
69
32
83
20
88
68
31
73
78
9
79
56
76
90
6
17
30
76
94
93
27
82
1
57
49
33
82
26
31
93
75
67
61
76
53
81
39
32
29
23
19
69
69
3
90
35
1
57
46
9
23
81
30
23
98
3
24
72
3
88
29
25
63
100
84
83
62
68
54
64
84
96
87
9
73
61
61
43
55
54
61
36
56
42
42
1
79
25
51
31
5
47
84
40
59
75
92
72
16
75
62
90
26
40
12
13
27
63
44
58
30
93
51
40
22
40
24
89
81
91
11
35
91
40
62
98
31
56
32
8
97
27
88
79
27
79
67
99
47
9
74
29
26
60
70
53
87
28
95
88
34
32
40
87
60
77
53
22
32
3
29
42
62
91
7
53
71
50
68
23
35
18
92
68
75
52
15
36
81
64
20
42
25
89
64
55
46
56
39
95
25
22
8
97
98
53
98
35
38
39
51
82
62
3
72
79
70
58
68
100
32
33
36
54
100
13
72
89
77
91
59
65
27
66
28
82
14
84
54
92
4
90
23
89
73
93
22
81
21
44
92
50
79
62
91
76
72
46
42
85
42
81
64
39
8
1
37
41
93
55
62
35
95
23
92
14
17
42
67
16
37
85
68
100
68
19
37
95
91
3
93
47
3
9
82
33
89
8
24
23
68
19
96
91
12
9
19
75
12
34
6
85
16
39
34
43
13
89
37
65
87
47
71
8
60
39
28
15
39
36
70
48
50
77
99
88
11
42
29
59
51
44
94
100
90
69
54
25
8
95
19
92
12
16
51
78
45
77
27
70
35
3
24
66
34
77
85
24
35
66
73
82
16
28
79
56
61
95
60
72
36
16
48
62
54
11
42
87
52
60
36
5
88
40
6
35
88
3
8
47
38
75
1
3
23
17
82
85
10
38
58
92
97
2
57
78
43
76
83
62
88
40
97
95
46
51
77
72
53
54
84
80
94
26
98
50
24
96
46
97
1
15
67
61
97
3
6
9
19
29
39
49
59
66
60
23
33
34
8
86
7
9
33
73
97
34
70
93
40
45
4
76
9
36
97
62
23
55
93
59
83
17
66
78
53
42
38
13
50
97
75
52
49
71
79
24
51
15
89
60
60
97
12
66
55
14
59
96
66
49
87
11
20
96
86
22
4
3
21
56
63
74
77
72
6
12
66
42
19
68
44
87
91
51
41
70
35
50
19
71
8
60
76
8
70
61
9
99
68
76
77
12
25
4
73
15
70
78
6
24
88
67
15
59
27
39
85
86
90
83
34
46
14
55
52
51
84
37
39
61
86
28
30
4
36
88
99
95
9
42
62
19
16
5
64
14
32
1
39
36
19
92
68
66
33
51
26
45
11
4
93
50
47
63
94
47
18
80
96
95
67
85
88
5
83
28
34
32
100
41
94
32
46
50
83
28
66
19
82
37
88
23
42
32
88
36
2
46
13
65
24
12
31
39
42
36
77
26
12
39
38
85
77
11
79
97
45
57
18
43
4
36
5
77
62
28
97
36
56
28
79
83
56
27
82
76
77
71
43
88
40
90
37
45
23
30
43
96
40
63
17
82
53
43
96
8
84
36
12
9
46
20
27
99
65
86
20
29
28
35
81
90
93
46
78
94
73
12
88
18
18
78
36
26
18
40
4
95
90
10
62
80
89
53
46
58
75
92
79
49
56
73
13
69
79
73
52
55
36
4
93
49
68
64
16
52
58
37
85
38
94
60
27
97
70
31
57
44
67
50
100
11
12
78
18
19
34
2
74
61
8
66
99
55
85
96
84
61
70
13
96
22
70
55
50
99
74
45
70
46
28
100
14
98
49
31
31
24
82
14
67
98
71
73
52
96
31
51
46
85
30
80
19
11
38
40
48
59
41
83
33
99
48
42
98
78
88
71
97
40
31
61
15
83
70
46
42
78
82
18
32
1
21
57
44
99
28
89
9
89
100
41
62
79
62
77
53
46
54
3
35
46
64
18
15
23
88
82
85
91
31
83
65
39
16
83
7
69
89
60
16
71
59
14
51
82
99
79
77
42
34
8
2
6
38
96
20
12
44
93
95
55
35
26
68
29
13
65
60
64
84
93
24
9
44
100
19
1
93
64
43
15
14
26
85
99
92
85
85
84
97
21
4
92
69
22
6
46
99
36
59
46
3
62
85
27
11
90
36
79
86
82
42
6
77
22
99
73
67
20
92
89
6
25
15
75
100
34
67
93
70
31
83
53
74
36
84
69
84
58
44
100
61
37
22
81
40
45
7
8
14
25
9
58
63
91
47
85
64
70
80
95
60
99
32
69
22
92
23
75
39
90
8
54
91
62
85
66
40
27
40
54
18
49
100
11
19
84
25
84
69
24
99
59
61
68
77
17
80
52
33
95
28
50
41
52
26
16
56
66
20
48
80
33
6
38
40
71
23
66
87
71
62
43
100
49
82
40
99
50
84
14
89
49
44
67
88
57
87
17
59
23
91
4
18
20
32
18
41
93
80
85
63
27
75
71
25
81
97
85
48
23
28
98
82
6
42
13
99
39
77
80
29
83
6
72
18
13
52
55
53
88
81
50
25
29
38
15
39
30
29
19
61
11
15
54
92
31
19
78
10
15
21
79
57
98
57
52
49
98
16
77
19
33
89
58
73
59
33
45
85
51
93
48
38
11
86
42
57
65
44
20
18
1
66
70
88
72
78
77
6
95
13
52
19
85
4
51
2
80
24
16
89
79
52
95
64
38
62
53
59
16
38
60
65
89
23
61
86
91
67
58
36
97
42
48
19
11
42
2
64
47
30
13
88
30
16
59
37
100
65
95
57
22
85
46
66
96
53
60
31
46
26
94
75
1
7
65
70
97
67
15
36
91
98
67
91
18
52
4
70
74
11
60
12
66
66
33
34
27
55
39
6
2
99
55
30
36
74
96
96
61
53
62
42
1
98
66
6
63
47
42
68
59
28
34
91
58
67
43
86
30
77
57
73
65
76
6
49
48
12
53
61
23
99
90
90
10
92
35
55
10
65
18
59
37
21
29
41
98
23
44
52
6
100
25
5
81
96
37
44
80
21
68
27
32
29
20
21
3
78
65
66
75
79
86
37
33
84
10
43
38
79
44
24
38
52
92
13
49
100
30
48
8
95
18
33
64
85
44
45
39
42
68
29
59
62
42
52
63
21
96
18
13
3
32
87
22
16
1
12
33
44
75
92
87
33
59
94
85
14
13
11
49
17
77
4
94
93
81
91
49
50
85
75
72
29
84
25
15
87
27
1
8
99
61
66
41
81
93
27
80
19
12
36
22
65
39
27
82
36
87
18
92
4
94
22
31
35
63
38
28
45
19
42
2
82
11
84
5
46
33
89
52
63
63
67
78
99
43
91
78
93
8
3
77
92
43
5
65
90
96
44
33
66
86
34
24
99
35
11
98
86
99
45
15
11
17
66
97
38
97
16
93
21
64
1
65
56
32
41
60
24
37
84
15
45
97
81
96
80
65
98
22
5
21
92
100
72
17
52
97
52
11
38
65
16
65
66
100
62
96
33
67
20
47
38
88
13
17
31
90
22
54
26
18
39
1
62
98
2
27
75
100
35
25
69
84
99
38
40
20
45
65
69
46
56
36
29
5
63
81
12
53
35
61
42
26
87
73
19
99
24
79
52
79
62
48
55
16
28
38
26
66
39
50
74
96
52
42
73
56
38
61
87
41
39
19
4
29
14
45
95
41
20
64
65
41
100
39
100
88
59
36
32
69
60
16
93
38
45
3
7
70
49
10
98
34
35
97
12
29
59
93
74
76
27
82
12
93
87
99
82
11
83
51
72
55
20
72
68
87
15
63
27
73
86
98
58
24
60
50
49
90
59
34
55
29
48
37
11
40
85
25
47
33
49
78
83
92
49
18
63
93
18
15
43
81
6
79
10
57
22
98
59
83
87
13
36
2
25
72
40
49
92
3
35
63
78
35
73
96
2
51
15
11
90
51
24
66
88
33
25
60
51
54
32
57
71
5
42
9
40
61
77
63
72
33
34
73
47
74
97
35
50
100
54
56
89
11
65
95
71
100
44
69
42
38
31
4
13
3
50
74
27
57
42
32
25
75
41
2
7
29
90
18
33
75
34
89
17
87
97
17
66
42
41
85
20
2
84
32
56
79
2
20
89
83
5
86
81
51
24
90
58
97
45
71
1
37
18
62
14
38
2
14
78
81
64
13
73
5
7
18
67
37
12
91
68
25
12
39
88
42
57
97
3
5
84
9
65
57
86
95
7
78
31
64
33
69
20
41
68
22
16
11
71
7
85
75
39
50
34
66
84
54
10
6
20
14
44
97
99
88
22
71
53
10
17
52
51
88
19
39
4
58
44
54
96
95
23
83
32
91
9
4
65
40
51
47
48
13
75
90
17
33
38
18
79
89
77
70
66
76
28
49
90
92
74
90
22
57
91
59
95
50
4
41
36
74
51
60
50
38
8
64
4
83
35
80
30
76
77
70
70
87
7
59
83
48
9
10
5
73
62
29
43
69
67
60
76
4
9
90
56
57
66
46
17
90
62
37
37
31
9
19
59
37
80
83
86
37
74
65
14
62
45
50
1
25
11
11
90
82
71
42
46
74
5
70
37
47
56
7
92
5
79
37
69
68
86
80
81
81
95
99
43
74
3
65
77
19
44
32
87
23
95
43
2
80
70
74
40
6
63
44
88
71
83
98
64
9
23
35
23
99
25
1
89
62
11
29
37
94
56
64
15
60
27
14
23
75
59
11
74
92
93
57
25
68
70
29
4
60
36
40
51
39
68
20
22
61
29
22
74
67
27
28
42
46
45
98
22
37
55
72
79
89
95
68
77
9
48
42
72
12
57
66
99
54
20
1
35
16
86
44
89
68
71
37
19
89
12
68
41
12
49
64
1
29
74
96
96
69
39
5
32
12
46
4
18
11
43
51
9
52
90
4
91
85
68
2
66
4
43
22
26
78
50
27
60
100
48
8
99
23
69
1
56
81
93
1
43
43
74
60
30
60
80
52
98
10
54
90
73
24
16
58
19
19
22
73
11
48
21
80
44
67
57
93
69
90
51
7
51
34
14
24
89
67
11
43
6
76
96
84
61
63
82
16
36
50
55
25
63
68
7
22
5
31
1
57
62
23
85
41
55
18
24
85
21
33
91
20
8
47
41
48
88
85
5
18
11
29
81
88
8
21
26
67
91
72
64
32
77
81
69
48
100
67
1
87
41
49
49
14
47
28
93
72
65
23
42
6
17
80
58
22
49
23
17
74
16
40
92
30
20
53
36
11
97
27
56
22
86
93
25
5
29
96
25
99
70
79
97
82
87
12
68
20
100
22
32
61
82
12
59
63
52
94
59
61
91
77
17
40
90
49
33
97
67
19
24
90
8
44
85
61
40
42
85
74
42
5
4
47
1
94
4
65
64
70
54
82
61
56
26
44
49
9
63
84
58
93
75
24
30
7
83
95
68
61
24
11
5
46
84
61
21
17
79
5
99
62
40
41
35
97
23
15
56
7
13
36
67
61
16
84
35
17
42
4
9
92
37
74
84
14
73
59
83
51
1
69
48
52
99
69
43
5
25
93
6
5
16
68
81
96
92
63
16
25
25
84
78
10
33
73
92
2
5
24
36
38
68
35
46
29
98
65
8
25
79
1
71
72
64
54
97
67
77
13
2
39
36
49
97
96
11
79
23
15
14
20
42
38
19
16
2
37
49
47
68
3
42
19
80
84
51
84
91
16
52
65
69
9
6
45
60
21
41
80
59
34
91
90
96
6
72
97
50
76
1
64
7
39
77
89
98
100
65
69
53
59
81
12
43
34
55
53
87
76
23
78
48
45
20
41
27
89
97
97
69
72
93
98
69
73
43
53
99
47
39
35
76
23
13
5
26
96
77
29
49
39
48
89
86
6
98
57
65
1
54
89
86
35
34
26
50
68
45
19
76
92
69
52
8
26
48
50
67
22
62
24
10
36
32
21
38
29
27
89
30
33
10
31
30
4
76
71
59
63
62
92
47
14
13
53
79
27
21
2
52
2
87
84
43
16
5
49
37
75
67
17
12
64
41
32
12
28
60
38
50
21
63
51
51
53
88
36
80
61
39
74
93
1
76
69
62
80
75
99
47
76
81
88
15
62
80
72
55
23
80
72
21
6
18
43
95
28
17
60
100
23
16
18
30
17
67
30
65
38
92
58
100
76
78
79
14
36
5
34
2
1
36
81
12
55
57
9
80
42
83
43
50
57
38
7
13
14
6
96
96
10
58
59
71
74
69
29
98
75
30
16
92
70
23
51
78
62
3
40
89
17
90
23
96
7
94
10
37
46
80
14
51
83
16
22
50
62
54
88
47
55
63
86
23
57
76
27
63
10
81
100
77
52
27
43
90
93
12
81
72
93
96
24
79
93
98
31
57
22
23
74
74
69
16
82
24
58
46
9
27
83
89
24
53
14
56
95
58
88
76
89
79
9
86
30
70
62
48
8
22
14
88
43
79
27
31
51
82
73
77
63
85
37
26
69
40
19
38
95
15
55
66
62
98
26
51
35
70
30
44
11
38
83
70
65
87
94
63
12
51
5
62
58
61
81
83
87
84
21
13
84
34
85
18
58
59
42
56
18
70
56
53
27
59
5
43
40
58
72
43
48
72
13
79
87
76
20
41
85
1
2
1
46
2
80
41
85
41
73
27
19
22
37
22
20
31
28
6
65
90
41
72
40
66
90
89
13
30
74
57
55
70
96
73
5
82
62
79
66
22
90
87
66
60
37
14
64
6
17
50
26
13
80
6
7
27
23
93
48
86
95
99
39
62
23
40
5
41
2
76
78
27
41
1
24
89
35
52
52
90
97
76
72
76
72
52
3
41
4
74
74
16
43
89
49
68
96
45
26
39
71
32
26
79
51
21
22
72
86
76
18
15
49
73
55
1
23
54
30
84
70
75
87
21
25
52
69
8
25
58
61
79
37
64
59
5
46
5
11
53
56
41
44
96
94
84
96
9
27
51
58
20
45
87
96
85
83
61
95
92
16
97
62
91
73
33
58
71
13
66
21
77
51
41
90
76
40
75
72
27
36
83
49
100
36
49
100
24
80
33
76
31
45
46
44
92
9
35
15
15
96
59
86
51
64
50
31
17
56
50
25
84
74
34
56
100
9
40
85
8
57
86
62
62
17
20
100
55
19
84
38
29
80
86
59
13
39
67
9
37
64
2
93
27
83
50
11
52
58
84
29
85
48
8
20
44
63
42
36
59
100
8
42
85
88
87
24
9
7
57
34
94
2
74
64
51
40
99
64
61
36
62
39
33
88
96
34
38
7
40
44
21
13
100
65
26
70
58
46
90
38
8
21
81
93
41
14
41
60
52
33
26
76
51
4
34
80
41
5
25
63
97
93
9
4
3
11
95
25
32
9
73
69
24
37
26
13
81
7
75
26
81
50
100
78
56
87
87
24
40
25
85
99
95
42
10
99
94
71
30
74
88
53
73
85
100
35
32
87
71
84
90
4
36
57
58
63
87
48
54
67
1
52
49
51
90
81
98
36
79
85
45
52
78
8
3
64
61
93
67
81
100
13
76
40
80
5
54
40
18
66
29
86
27
13
52
23
30
46
55
2
59
4
2
50
3
66
1
9
33
62
69
13
9
36
67
30
81
63
66
23
55
17
22
39
42
51
49
2
82
60
70
45
60
44
89
94
57
8
19
51
40
37
54
21
3
57
46
58
15
87
59
64
37
11
55
93
2
31
51
27
34
17
98
65
34
84
18
93
7
79
24
70
34
83
15
25
20
89
3
13
68
71
50
58
40
72
51
21
75
69
87
55
55
29
6
88
17
93
75
20
66
55
66
69
28
16
90
100
62
62
77
36
55
62
58
18
8
100
100
58
31
61
17
83
28
48
31
35
75
93
70
50
90
12
80
28
43
7
83
82
63
53
47
53
4
55
30
82
37
89
40
37
32
38
35
25
1
30
88
34
39
76
72
34
83
60
82
86
73
67
70
20
62
50
11
23
27
62
42
42
6
49
9
95
60
86
15
65
15
7
61
7
29
72
85
57
66
73
82
76
67
24
21
7
20
77
35
85
95
93
51
69
4
90
62
73
78
80
92
84
8
93
58
45
13
42
1
58
97
9
93
62
85
91
95
35
94
35
19
35
73
57
47
8
50
40
76
100
3
29
19
54
40
8
31
75
5
66
69
93
95
98
25
94
85
66
89
38
64
53
76
42
55
14
77
61
49
40
10
77
19
37
44
19
53
58
16
65
77
21
13
25
97
2
33
66
75
52
83
10
22
87
19
35
30
81
82
46
75
37
59
46
62
67
29
5
32
25
66
45
29
9
37
56
41
92
51
25
7
23
40
72
96
91
97
23
24
21
4
46
97
12
87
8
95
49
32
43
39
63
46
12
37
90
72
18
77
48
48
55
10
39
47
60
28
25
19
80
16
59
61
53
51
24
46
39
77
25
79
27
36
46
46
49
83
85
56
19
33
90
20
6
87
2
44
82
88
26
10
68
44
28
86
64
59
44
83
61
20
68
11
15
90
14
53
20
32
49
96
27
82
54
16
79
52
15
38
52
1
61
70
78
84
97
81
1
34
54
54
1
17
88
56
20
97
85
41
55
34
18
22
44
46
29
42
21
60
36
66
98
41
42
71
5
12
40
16
33
31
54
79
29
84
60
40
53
19
56
63
56
78
63
11
47
78
26
66
13
47
75
78
47
12
4
55
74
49
20
61
96
29
75
82
95
3
7
91
21
97
71
49
45
83
73
72
84
69
58
59
61
36
72
27
23
56
92
79
94
55
30
30
94
95
16
76
26
8
46
88
47
49
55
66
64
61
89
25
78
54
38
10
32
70
19
49
92
22
12
76
14
16
67
25
7
60
86
96
54
35
14
27
31
25
49
79
17
41
41
98
4
57
86
86
39
92
44
39
30
74
97
33
22
28
67
76
65
89
77
70
26
88
32
61
1
54
25
71
56
1
13
64
2
95
8
21
69
51
81
4
27
93
53
26
67
86
83
83
46
99
39
96
96
56
60
75
13
10
99
5
80
52
58
26
13
55
4
16
9
91
47
78
58
78
77
29
7
67
38
3
46
82
72
81
61
18
52
12
1
60
76
69
91
68
85
68
71
6
43
83
19
66
1
42
50
69
99
87
40
61
18
10
32
91
83
65
5
32
65
81
39
48
82
1
43
12
76
88
73
13
89
27
63
31
75
22
23
42
40
14
92
25
25
59
49
55
83
6
51
77
89
26
45
83
82
28
43
1
73
79
50
100
70
49
69
42
35
95
44
65
52
17
80
50
24
29
23
9
60
100
51
82
88
55
33
90
44
70
53
81
9
52
43
36
20
14
80
9
30
54
1
6
88
68
30
31
99
52
79
56
8
43
6
54
26
65
68
87
22
88
93
25
68
58
47
52
14
25
35
28
71
39
52
85
47
22
40
35
8
34
42
60
71
70
94
73
76
69
8
32
97
72
3
99
25
64
28
88
68
16
12
47
94
75
28
49
69
89
91
99
22
3
63
22
82
14
69
99
26
87
53
43
50
65
10
45
60
66
11
40
23
4
93
84
1
5
86
15
86
23
27
76
69
95
84
90
98
21
87
77
47
96
4
34
56
62
91
21
29
19
64
78
54
19
51
13
43
42
7
27
83
81
48
26
16
82
53
61
81
73
66
34
18
30
91
77
21
70
46
84
50
4
71
28
85
36
41
40
50
3
57
13
45
95
71
3
85
68
74
28
100
4
20
79
43
5
45
25
20
51
21
53
62
89
40
88
10
78
57
4
68
69
2
26
60
66
68
64
55
84
35
84
45
67
98
75
13
27
53
81
54
59
39
26
38
17
90
40
25
95
9
11
35
59
98
3
61
28
75
57
90
100
80
36
66
42
88
24
36
59
14
32
39
82
73
51
76
29
50
13
77
93
87
82
88
67
32
55
50
96
41
10
33
98
75
25
88
74
8
15
13
2
75
3
89
31
61
52
85
69
7
86
29
44
98
45
15
68
9
54
25
29
89
23
35
44
29
58
3
97
70
49
22
44
35
98
92
66
51
84
41
60
90
67
78
79
57
48
100
89
30
94
31
96
35
76
55
100
24
24
23
85
99
36
57
96
63
92
41
67
65
25
46
56
58
61
19
99
17
1
67
5
76
38
19
81
19
59
84
59
54
77
60
12
16
41
43
6
69
26
63
76
85
11
5
55
74
20
79
67
42
32
73
12
74
60
42
35
9
42
22
25
61
97
18
30
32
96
60
68
26
42
58
43
27
76
58
1
25
82
68
55
97
38
96
50
71
2
55
13
79
30
41
43
37
62
61
54
95
41
78
17
42
87
13
31
17
86
72
30
87
71
52
45
93
84
10
86
45
63
36
47
44
1
67
87
3
94
32
93
35
96
84
8
90
39
73
24
78
3
38
18
53
69
42
99
27
97
78
78
8
54
98
66
62
56
30
31
51
47
42
94
55
40
79
41
42
33
41
62
39
90
6
40
95
10
31
13
76
12
69
49
63
13
45
84
46
82
88
23
53
40
75
44
62
90
95
99
45
42
69
87
74
74
92
55
10
71
89
14
64
58
92
59
34
12
81
95
90
20
41
81
1
46
66
31
42
32
55
26
95
87
60
50
86
64
65
80
58
65
82
84
73
94
93
35
22
42
16
53
56
27
69
32
73
39
73
19
41
8
57
86
95
63
50
64
90
100
67
49
38
94
44
97
11
72
16
13
61
44
66
64
3
87
71
94
15
19
90
39
46
78
40
11
8
25
85
89
52
41
72
59
22
16
62
12
20
76
31
73
71
77
32
33
7
56
88
7
81
56
74
94
58
36
29
69
40
80
6
97
94
34
71
4
53
73
69
40
46
73
37
5
21
81
81
20
43
43
100
31
87
2
36
22
19
41
87
7
84
94
48
33
30
13
54
19
88
59
9
9
75
63
49
45
11
82
8
53
5
22
34
95
67
72
41
37
68
43
82
54
70
18
66
46
67
40
86
54
97
30
98
20
61
9
62
94
57
86
3
49
47
92
29
37
93
10
6
100
52
18
78
74
14
6
7
24
43
29
80
73
17
46
97
49
75
66
42
48
64
92
54
52
21
98
8
35
21
10
16
2
6
75
91
88
30
80
69
77
19
39
76
55
38
25
84
99
66
56
44
66
66
32
62
66
90
1
97
1
23
13
42
53
53
4
49
47
19
50
54
29
18
72
14
88
90
12
71
67
59
15
5
52
9
58
88
89
43
13
51
59
14
75
43
62
36
44
77
36
37
65
18
9
90
86
17
31
29
94
15
56
33
47
50
21
79
35
24
31
39
33
96
81
12
66
13
70
55
27
89
66
67
64
84
39
32
34
11
61
88
95
73
67
84
59
26
59
62
12
86
28
80
61
21
18
80
60
7
34
29
37
1
32
32
100
1
98
56
4
45
75
77
1
1
66
74
58
97
29
67
80
13
13
38
29
20
61
37
80
40
51
96
38
4
67
77
20
30
44
18
28
36
24
24
32
13
44
46
57
77
73
1
2
61
37
9
64
41
58
34
10
72
2
38
84
50
53
50
69
99
78
92
69
85
69
91
73
74
60
51
29
22
33
80
92
14
50
76
37
26
65
31
67
66
85
71
25
60
2
27
85
90
47
35
58
43
22
81
83
44
94
43
39
83
13
33
80
24
12
40
78
64
32
17
65
51
51
84
45
51
20
17
21
7
43
40
95
34
71
29
31
20
61
3
42
10
36
61
67
91
37
33
58
65
34
61
98
45
23
6
77
97
76
92
51
11
17
89
46
19
9
44
16
69
32
58
6
30
48
19
50
21
67
71
57
27
12
61
4
20
87
66
20
5
55
95
84
67
11
57
19
30
76
41
87
55
87
52
46
64
72
49
74
12
51
57
13
56
66
53
86
51
44
23
22
91
18
61
69
93
28
50
9
34
56
72
86
2
52
33
42
88
86
79
83
28
49
75
4
61
86
15
97
78
53
92
99
31
34
14
68
9
20
13
7
20
2
46
21
26
37
41
17
16
26
37
73
97
40
58
98
67
93
28
21
91
34
15
84
92
32
9
31
62
56
80
5
97
88
56
99
77
48
16
70
89
55
54
94
36
34
7
100
50
14
12
68
93
78
29
55
87
5
73
21
95
77
88
83
37
25
45
89
12
76
37
59
17
5
27
91
12
5
85
5
63
11
67
1
16
50
76
98
72
78
35
68
30
57
58
21
88
5
31
38
58
58
37
13
2
82
2
67
77
21
75
62
53
99
80
44
18
97
26
47
42
39
31
98
69
45
38
30
14
61
48
35
2
65
71
82
75
35
21
15
40
2
29
16
64
97
62
8
33
58
38
44
60
43
65
55
4
70
17
25
74
45
81
65
36
61
5
28
54
98
3
11
77
19
75
28
22
78
88
22
43
77
72
76
92
12
88
73
89
74
31
64
57
16
3
75
44
46
65
8
40
30
61
4
29
43
34
19
52
27
42
36
26
20
63
98
36
50
9
63
69
76
20
93
88
29
71
54
19
78
83
87
93
46
22
34
28
41
47
71
52
9
54
78
89
30
81
82
35
1
71
98
83
26
18
14
18
33
41
98
58
2
18
91
87
70
100
27
36
40
78
90
43
2
85
17
43
88
43
83
30
78
55
31
7
23
68
51
90
48
20
36
8
37
8
96
92
76
25
31
55
47
62
99
3
56
63
7
99
94
5
90
55
94
52
30
38
24
97
40
90
84
85
83
52
81
80
38
41
14
75
94
86
44
61
29
56
92
100
69
68
93
12
48
81
29
86
90
36
67
34
68
56
18
94
54
13
24
49
39
27
16
89
15
82
60
79
44
80
46
36
4
49
65
7
79
90
96
78
42
61
54
20
39
12
10
40
21
43
13
3
31
13
83
76
80
56
15
33
50
53
67
26
66
26
68
86
84
30
46
29
73
71
76
34
29
39
5
1
87
62
96
18
16
37
14
7
19
93
2
35
35
50
100
1
77
2
21
89
1
78
53
43
96
86
60
82
77
90
46
13
36
90
2
91
19
40
97
68
96
32
2
83
37
31
52
57
92
34
76
13
94
99
63
50
52
68
8
61
63
8
24
52
23
50
99
29
71
19
78
71
1
32
86
28
85
82
89
54
77
55
94
55
91
82
52
21
19
83
22
44
9
68
57
37
23
12
39
39
5
57
87
39
51
61
76
34
76
56
31
1
20
28
91
4
26
38
42
57
82
72
49
19
37
87
12
97
27
26
62
47
56
56
14
2
47
35
58
16
11
73
8
26
90
27
35
98
90
19
1
56
38
79
43
41
83
30
13
24
66
25
56
92
15
80
78
36
90
39
42
17
81
37
81
47
82
2
25
71
31
81
100
17
26
34
99
13
8
3
31
44
94
41
41
35
44
5
27
38
9
28
71
97
88
4
93
9
94
93
31
89
30
4
91
37
9
95
99
77
92
62
36
44
94
53
51
98
74
94
29
65
77
5
62
74
47
71
54
48
22
68
94
41
84
87
76
36
15
45
33
12
81
98
78
89
43
85
20
78
6
6
23
36
90
48
88
77
40
49
58
84
32
40
29
56
82
20
91
75
14
62
22
80
56
4
23
44
46
97
15
80
48
39
66
91
43
20
32
12
23
49
33
99
10
51
23
96
27
96
49
100
4
26
38
32
69
24
17
2
96
42
77
63
57
6
70
91
31
93
27
71
90
65
61
52
62
22
57
33
69
68
70
3
96
74
92
91
54
76
29
43
97
19
17
49
53
49
9
90
63
43
6
89
1
33
87
12
48
36
45
90
7
72
97
97
20
41
81
72
92
38
73
5
98
21
44
38
85
38
3
97
20
59
37
47
4
13
46
49
56
13
75
34
4
14
46
30
20
78
76
3
37
8
59
28
98
14
63
82
29
69
67
80
48
76
89
22
6
66
68
69
76
33
76
65
8
81
95
88
43
36
41
16
32
88
95
51
27
34
7
91
25
17
23
23
97
86
31
8
27
60
44
15
47
60
76
46
56
22
34
83
88
39
85
20
81
1
68
79
40
69
53
17
10
43
50
70
79
55
72
42
12
12
7
86
64
6
60
20
53
70
30
59
83
50
92
30
69
71
69
37
86
42
93
23
28
57
4
40
18
96
44
79
69
53
90
8
43
51
66
11
9
58
46
5
95
60
46
20
54
83
65
100
29
44
95
57
49
97
87
27
68
87
12
68
61
75
73
47
63
61
25
22
42
65
46
89
63
69
1
12
67
28
80
11
39
42
82
22
60
95
26
36
87
31
3
83
75
30
31
56
64
79
98
20
38
9
40
2
80
20
85
20
24
48
69
7
38
18
9
3
13
49
56
9
84
12
19
100
20
34
22
11
63
97
10
90
49
1
50
20
62
71
2
11
30
96
38
24
39
82
100
89
83
39
46
55
4
77
67
47
86
2
17
12
6
42
72
22
41
83
44
69
29
10
81
5
22
30
47
52
43
43
49
19
82
56
1
17
24
78
60
89
92
93
69
93
96
65
83
35
59
86
73
45
72
56
20
16
12
94
13
24
44
37
94
6
91
41
8
14
29
5
27
18
57
5
30
38
86
1
33
12
92
46
1
56
86
69
35
76
8
36
73
17
10
60
14
1
57
93
69
70
40
93
62
21
25
59
97
60
75
32
52
94
100
26
7
5
40
77
87
98
19
3
20
53
80
72
4
80
63
89
86
45
55
54
80
93
9
74
35
54
64
51
8
28
23
1
91
70
66
28
37
73
18
96
93
45
84
81
24
37
78
76
8
56
100
89
95
61
92
43
3
42
100
23
3
49
79
69
21
8
31
75
31
7
38
80
68
24
14
90
44
95
43
89
17
48
40
81
37
66
13
94
50
82
99
27
8
41
63
56
21
35
38
89
24
89
74
68
64
42
9
86
32
98
90
23
43
76
34
80
47
86
98
11
81
48
29
92
36
92
97
77
95
35
81
22
57
40
58
76
20
96
58
44
66
82
45
46
19
65
6
20
64
47
76
35
68
1
71
86
28
41
22
55
69
44
18
98
54
84
24
75
74
65
74
80
91
20
67
1
21
68
86
5
2
11
44
26
34
46
53
100
72
29
10
3
75
78
5
28
6
56
26
37
35
3
99
33
99
9
41
59
79
15
35
12
2
93
93
13
23
40
64
55
4
36
39
18
15
89
90
86
82
91
96
33
21
49
41
63
97
44
90
16
73
58
46
80
27
99
92
38
7
35
79
32
41
3
14
90
34
17
78
61
22
47
43
82
61
20
21
12
52
65
59
66
61
93
55
4
35
72
69
9
61
95
56
29
48
5
86
16
58
80
15
2
89
42
22
31
57
100
90
67
44
53
53
4
16
38
65
23
68
45
56
58
13
89
24
63
85
17
82
75
64
54
42
93
11
23
65
7
24
40
19
44
38
43
80
61
2
40
47
65
10
40
66
95
72
59
9
15
99
95
17
13
27
66
13
15
40
86
50
19
3
85
63
41
73
34
72
64
33
9
25
19
27
77
34
93
64
26
13
8
78
77
14
68
12
48
87
12
75
2
85
91
17
3
61
96
31
54
9
47
5
100
78
52
82
63
11
65
54
60
54
22
27
93
7
92
19
73
58
80
19
24
89
86
61
4
6
96
80
1
14
4
15
69
87
9
45
35
82
77
39
33
47
6
35
74
90
54
6
58
6
26
49
85
17
2
47
34
52
4
42
20
77
67
13
36
99
3
3
89
95
29
67
52
48
5
50
47
48
40
37
26
36
97
64
51
84
75
83
11
85
46
89
75
66
53
31
63
70
99
30
73
97
45
17
67
17
100
58
14
99
12
32
96
95
56
36
78
33
3
28
95
86
8
100
45
55
14
36
14
17
34
79
48
22
5
87
9
63
99
29
57
47
10
44
66
21
69
26
46
39
64
55
77
35
21
59
10
90
35
14
75
36
94
90
39
74
43
27
39
12
21
56
75
38
30
88
46
92
11
76
88
79
15
89
39
34
79
48
81
40
31
32
39
26
16
64
81
88
45
68
31
86
51
82
50
32
24
92
94
26
88
45
24
41
58
42
5
66
42
7
24
63
85
66
2
90
64
97
40
30
38
23
41
46
56
95
63
74
68
73
42
61
86
74
81
1
100
71
70
80
4
99
52
48
88
90
87
57
9
13
53
19
19
14
92
89
97
90
49
94
83
89
50
2
85
40
68
99
1
97
60
7
82
56
37
82
97
79
34
54
96
86
29
31
6
37
18
12
34
11
46
56
56
5
61
25
46
12
90
69
17
44
62
99
50
28
7
22
10
98
50
80
55
13
65
3
83
77
93
39
95
92
85
50
42
27
23
64
24
41
57
48
17
55
2
66
66
94
20
69
24
20
13
72
88
72
60
59
64
83
46
16
86
49
32
90
37
65
3
40
95
72
95
48
54
59
66
22
99
29
63
59
67
82
74
83
62
55
11
15
18
88
24
97
42
24
63
65
40
5
65
36
49
35
97
88
71
15
97
4
81
12
75
68
35
18
43
64
65
91
1
37
87
7
19
96
87
37
22
32
39
85
6
20
57
25
59
22
89
83
22
75
100
47
92
34
91
58
68
70
20
28
24
72
95
21
72
78
20
89
95
83
81
98
44
19
91
13
4
98
89
81
78
82
85
70
11
7
66
14
75
83
44
6
50
90
86
76
36
1
50
72
18
70
100
45
5
75
85
34
6
29
99
2
37
4
73
13
92
10
7
9
92
68
24
22
70
4
22
78
19
73
61
5
85
54
61
48
3
11
8
65
17
70
2
39
13
69
43
8
71
75
32
81
17
24
69
99
88
63
19
16
69
59
26
35
73
3
52
8
16
94
30
52
90
85
8
76
68
56
20
97
10
82
22
92
1
1
61
77
32
78
44
66
55
49
91
90
29
2
36
63
78
60
51
93
3
95
94
49
81
25
39
66
16
1
60
40
41
6
44
91
50
51
64
78
4
87
77
42
68
71
97
73
55
20
91
34
86
87
48
25
42
73
4
54
33
55
66
86
32
8
53
84
8
44
88
94
90
57
59
47
78
4
47
41
84
34
14
61
1
56
68
82
6
7
52
83
37
19
57
43
66
6
45
100
50
88
15
41
35
32
78
66
54
2
74
3
6
9
43
57
98
77
36
28
23
41
15
2
48
7
8
77
99
88
75
48
65
91
50
8
77
98
17
90
49
60
42
58
22
75
48
10
32
70
92
44
11
48
38
35
96
16
74
43
52
83
32
9
93
48
87
79
83
97
23
14
52
6
34
47
41
58
36
70
17
83
3
50
85
10
1
12
37
21
19
10
93
47
15
41
67
48
52
62
92
6
6
100
35
78
22
69
93
48
50
24
12
46
87
19
17
78
55
79
26
36
11
66
17
85
76
77
1
9
39
29
43
62
22
86
76
63
30
87
78
79
93
61
33
94
13
43
11
3
19
55
41
100
70
99
11
7
48
16
71
38
44
4
78
13
49
42
86
28
74
27
19
56
23
60
13
44
25
94
95
30
62
24
52
12
56
95
4
92
68
88
49
7
55
16
3
89
53
61
89
91
2
21
4
10
71
79
40
31
43
46
47
78
19
78
56
87
67
23
99
78
18
5
40
96
99
10
29
31
38
86
48
13
51
50
58
50
78
72
35
95
35
6
46
20
49
68
15
57
55
64
13
24
20
32
53
12
84
74
47
43
15
41
74
8
17
25
25
8
41
43
77
100
4
79
27
41
40
69
31
40
78
19
63
38
5
1
89
39
71
10
66
96
75
7
12
75
68
34
82
46
49
41
94
19
36
87
48
62
14
40
27
11
18
44
77
12
86
17
64
99
59
58
84
41
63
4
67
98
62
89
9
65
86
16
66
7
58
47
99
14
81
18
15
72
34
100
29
22
87
68
55
45
79
36
62
41
5
24
69
87
28
2
45
56
7
23
70
92
20
98
68
95
78
74
84
66
26
94
58
18
2
63
83
54
97
33
91
66
76
58
20
23
43
44
87
22
97
62
85
30
16
43
43
91
83
59
51
85
87
62
58
25
42
7
54
54
22
98
61
59
8
39
4
6
86
81
7
76
96
1
36
32
76
88
54
13
85
89
7
18
36
74
4
22
77
14
54
2
33
12
70
57
45
43
64
47
98
57
94
68
53
38
85
51
12
1
7
33
45
14
30
57
67
92
52
94
47
23
17
36
40
1
18
28
9
32
19
31
97
40
1
26
23
58
88
13
20
63
21
61
47
71
76
81
67
3
3
73
36
90
46
2
96
7
18
26
80
56
1
39
20
86
27
35
99
65
1
8
28
40
64
71
43
19
80
15
21
29
66
46
12
40
55
79
65
97
28
96
91
60
28
96
17
31
9
47
99
39
2
15
61
57
96
93
27
8
69
28
32
5
89
72
74
86
65
2
65
59
10
81
61
43
16
63
99
69
1
59
29
99
75
18
16
83
88
89
43
54
78
10
53
77
87
70
10
55
96
69
66
78
93
73
80
59
52
1
11
56
29
5
28
96
85
68
27
54
10
65
84
86
82
55
87
70
9
48
59
40
46
93
36
74
87
25
81
34
32
95
56
23
46
21
34
23
64
79
31
46
1
86
69
63
96
43
68
11
37
61
44
7
37
75
48
29
59
47
55
98
46
95
59
10
92
26
59
76
40
37
37
38
100
10
94
60
46
87
62
14
53
12
93
13
76
27
41
86
19
40
29
22
58
80
13
34
96
36
99
78
100
83
64
17
18
30
22
20
9
28
67
77
81
77
94
72
26
96
24
25
15
3
1
12
11
5
23
75
42
78
72
52
52
73
63
88
46
90
82
31
70
94
66
20
38
40
65
69
23
34
20
65
15
5
1
32
84
98
25
48
52
19
43
94
65
93
56
17
30
40
79
59
65
93
84
53
9
83
49
22
83
70
87
71
48
25
83
90
97
15
93
81
76
65
1
39
85
51
65
46
49
90
7
88
95
5
43
35
83
27
71
63
15
21
87
91
83
70
8
73
58
47
100
57
75
15
26
11
68
69
32
36
92
11
23
12
47
71
84
24
26
74
7
11
49
27
14
64
8
81
98
23
60
49
76
61
95
59
27
38
66
92
40
71
32
70
64
96
28
76
26
92
66
92
23
91
91
88
98
6
13
9
38
63
65
63
40
23
87
73
8
85
25
52
15
48
19
40
77
18
27
67
50
4
17
86
77
27
91
50
52
18
90
27
31
56
34
72
57
44
32
98
45
64
49
70
96
5
67
54
69
90
45
56
31
31
84
100
64
77
55
65
87
47
72
100
36
64
59
74
12
64
16
54
82
88
19
25
74
12
38
77
47
36
49
41
98
6
16
17
18
98
21
69
100
74
1
95
87
39
68
36
16
38
39
58
98
85
75
37
39
96
71
48
3
23
98
7
75
93
63
100
42
39
6
51
88
12
85
71
45
63
48
2
96
92
95
66
35
88
57
14
41
49
41
7
75
8
78
19
99
7
5
86
90
76
57
71
64
71
80
7
75
40
66
78
92
31
55
18
75
87
98
38
43
85
13
1
1
31
94
28
26
43
19
2
79
42
89
79
50
96
30
59
35
29
56
93
16
99
72
60
7
10
25
87
61
44
59
73
44
31
75
23
49
17
82
84
32
63
75
87
62
79
42
42
43
49
72
11
22
51
80
9
52
88
78
91
50
59
15
29
25
70
56
27
19
22
60
97
53
15
93
67
84
65
35
75
38
34
92
44
13
61
77
29
13
25
46
45
99
43
64
63
67
32
99
34
45
76
78
82
66
27
5
72
21
98
33
80
67
85
10
62
21
62
62
10
62
77
40
81
56
29
69
50
49
16
44
61
27
7
37
31
66
13
7
47
90
3
31
9
84
25
44
74
89
91
98
12
77
82
60
24
67
33
30
58
34
85
44
60
59
98
33
60
4
98
10
36
9
78
44
10
49
27
69
17
45
99
39
28
23
38
54
33
49
57
73
3
43
4
81
63
98
89
63
29
67
47
39
49
56
21
81
20
30
88
88
40
73
59
42
9
85
25
76
52
89
78
6
70
51
4
83
82
89
43
89
58
63
28
5
2
91
94
71
32
81
59
72
75
38
16
25
21
8
11
71
96
31
37
12
20
65
25
67
22
13
16
72
35
69
23
84
1
8
16
85
75
100
87
39
85
41
60
43
74
2
40
27
55
53
68
86
50
49
26
59
17
79
63
64
97
89
79
71
96
43
10
49
2
69
12
2
38
80
2
92
36
82
10
45
1
5
40
68
86
25
74
47
51
100
51
97
71
11
52
31
53
13
60
71
8
2
90
20
12
93
21
7
62
71
26
7
84
80
22
46
16
72
43
83
7
63
54
36
26
62
90
38
41
66
24
72
37
51
63
62
96
30
63
78
90
92
55
92
99
7
40
11
20
72
17
63
61
61
89
45
43
51
72
82
75
72
15
85
71
70
29
21
60
35
25
4
82
39
39
28
94
19
41
23
33
40
4
63
92
41
22
23
7
3
61
10
61
95
85
29
66
93
44
37
56
16
75
43
13
37
35
98
98
2
25
3
49
4
11
78
36
56
64
15
52
10
64
64
4
53
54
21
68
81
78
15
84
6
96
56
45
29
66
20
73
22
15
28
53
21
73
55
45
97
35
25
70
21
1
85
80
8
21
99
64
83
28
16
70
25
74
6
8
95
31
17
52
6
95
56
25
50
48
18
34
76
26
92
96
72
14
80
86
53
25
88
20
19
3
3
59
95
13
47
54
66
63
40
29
12
36
14
93
5
2
89
25
2
90
76
29
11
58
10
68
88
85
38
61
70
16
25
75
58
53
26
38
89
70
33
82
31
93
49
86
26
59
80
78
50
56
50
49
43
40
83
6
23
88
54
47
2
46
93
52
3
4
54
23
23
8
19
29
75
26
43
26
5
45
78
20
54
84
73
23
62
76
75
79
17
40
11
30
52
10
55
84
23
62
28
49
16
33
13
39
14
96
38
37
67
28
14
10
30
4
64
39
29
75
88
12
83
96
11
73
57
97
82
16
88
56
43
31
64
6
84
85
20
99
75
7
21
9
23
72
67
17
100
19
31
84
44
45
96
19
62
43
96
53
60
73
6
62
100
7
10
26
19
89
36
16
51
34
63
33
19
73
64
32
77
91
9
53
72
60
21
69
4
76
18
26
98
76
63
33
68
42
76
90
59
62
13
22
41
83
8
41
62
49
87
6
14
87
20
20
8
53
35
75
11
31
6
92
10
8
88
9
31
26
97
9
85
6
67
16
42
74
58
8
40
92
89
18
87
10
30
89
50
73
100
21
56
43
31
70
92
13
58
6
49
66
36
90
34
53
96
76
8
71
30
28
76
63
95
85
21
67
47
10
33
71
18
67
19
48
47
89
97
4
57
73
36
51
18
70
100
98
88
32
62
10
77
77
64
20
56
65
41
16
64
14
27
51
78
90
87
11
27
36
35
8
28
52
46
47
55
87
41
70
56
50
100
78
15
13
62
85
8
53
8
78
7
10
35
26
84
8
94
51
22
47
81
6
19
76
49
60
36
19
84
26
61
5
73
47
69
25
53
41
78
55
85
38
52
41
68
17
84
74
77
88
74
23
70
43
6
60
85
40
88
77
32
53
39
95
24
75
40
75
86
47
74
70
17
4
12
43
41
16
47
69
41
52
11
60
57
91
45
59
90
7
81
4
66
97
9
17
86
19
10
12
55
59
30
67
39
6
66
47
22
31
2
36
16
6
5
96
74
83
1
61
11
1
10
65
45
55
17
36
25
36
39
96
3
96
85
9
99
40
64
86
26
89
78
38
48
58
71
88
100
45
19
75
18
13
49
70
29
37
81
17
72
65
56
90
16
22
76
22
6
14
15
92
23
65
43
86
86
37
2
30
23
24
34
69
28
40
16
19
91
30
10
43
29
78
87
48
23
63
49
52
60
43
42
98
3
89
60
15
3
26
96
65
60
44
98
48
25
54
44
26
8
30
20
6
62
88
60
94
83
96
14
23
26
40
33
59
20
1
78
41
70
31
91
72
61
30
16
84
7
18
62
53
73
40
56
40
72
51
46
9
62
1
27
43
36
29
38
8
27
63
33
97
43
36
59
98
57
28
17
6
84
55
4
37
75
55
57
19
71
56
41
65
67
65
20
80
66
71
46
67
28
69
69
35
10
78
94
97
88
68
27
47
76
82
38
40
65
81
69
77
98
28
37
19
87
40
58
35
56
68
57
77
90
79
1
38
79
75
65
33
39
90
32
9
14
1
89
89
66
15
31
72
97
26
88
71
20
16
95
48
39
9
77
16
25
28
96
98
6
74
98
94
7
57
67
41
71
65
28
66
56
41
78
25
71
71
71
13
19
59
48
32
42
50
56
70
87
82
57
50
43
34
84
64
13
32
40
34
96
67
78
74
19
17
18
14
16
10
80
12
41
12
84
43
54
42
2
98
40
4
95
33
60
58
43
15
39
27
40
33
67
38
15
37
86
67
81
45
100
20
81
87
24
74
81
94
32
27
28
6
24
19
53
25
97
54
63
98
76
62
41
9
32
81
63
63
1
38
1
2
13
33
37
1
41
86
76
14
95
58
74
62
20
57
23
19
97
35
85
81
20
70
65
22
33
37
42
64
6
87
57
89
53
24
66
39
80
61
52
66
23
64
58
45
39
30
23
85
74
80
27
31
76
74
8
99
63
91
77
24
60
13
98
69
33
11
12
72
3
42
7
64
62
25
69
56
33
3
19
99
93
32
45
7
68
84
8
5
71
35
95
87
30
58
10
98
75
47
29
82
86
40
56
1
28
10
82
54
89
40
46
30
45
51
39
66
61
72
97
67
25
42
10
22
56
78
88
31
86
41
64
17
2
69
48
69
63
60
78
33
10
42
11
44
95
63
32
100
26
6
100
14
85
32
69
90
98
28
10
91
41
99
72
51
80
13
88
46
33
84
19
100
10
21
99
28
45
44
19
7
7
8
68
87
19
92
97
15
71
36
100
68
75
26
23
23
54
93
38
33
36
39
81
53
23
68
91
24
88
95
49
82
7
52
79
88
64
78
18
99
4
25
78
40
89
33
42
23
46
29
54
75
53
2
59
15
7
24
89
96
68
71
33
60
8
44
36
49
54
91
65
98
95
93
67
70
79
7
61
44
71
81
78
94
29
35
84
47
75
86
3
20
57
17
45
60
89
10
49
79
1
23
72
17
40
34
53
61
12
7
9
21
17
16
100
95
44
32
20
70
39
83
55
68
37
17
58
14
86
12
4
12
40
40
99
5
11
55
81
81
34
99
87
43
34
63
62
33
64
52
44
96
10
12
85
30
48
8
98
20
21
3
91
97
81
35
77
54
83
6
11
55
96
73
2
48
43
18
33
97
16
29
83
55
28
7
16
97
50
54
42
22
36
56
51
85
98
73
97
95
24
52
31
44
23
15
22
70
93
5
93
77
100
94
72
83
20
40
70
29
88
9
76
74
4
18
11
61
81
39
69
22
88
51
48
32
71
98
59
22
70
39
29
29
91
58
41
56
96
6
75
65
5
96
81
10
36
83
66
22
73
63
71
68
13
41
78
23
37
29
56
50
84
66
55
34
66
94
70
52
79
20
46
7
19
37
20
63
98
70
26
49
41
31
62
95
81
38
67
4
4
72
74
57
74
61
12
79
4
59
27
2
73
60
18
47
59
58
7
37
37
5
97
18
88
76
71
100
38
16
91
88
35
28
91
63
85
43
60
58
82
51
12
32
31
28
64
8
12
31
100
59
53
8
46
64
19
49
48
12
42
91
28
66
27
79
7
14
27
58
45
19
33
14
13
8
85
84
17
52
41
70
90
62
71
13
90
64
81
89
85
44
66
46
70
2
54
16
83
21
86
71
50
36
22
92
12
69
52
3
62
69
54
41
34
55
16
60
3
59
72
2
58
16
35
78
25
43
6
24
55
48
29
44
91
4
27
44
71
10
33
26
10
59
12
38
28
75
24
91
79
24
36
69
31
17
97
57
69
17
62
60
97
26
8
13
49
9
78
79
15
88
9
7
11
48
46
4
10
16
34
8
55
37
80
39
88
64
97
68
56
94
29
55
91
37
53
9
35
70
63
3
34
28
31
34
3
35
25
41
19
92
73
100
70
66
16
83
70
63
16
91
11
13
92
99
4
24
9
77
89
37
44
84
54
45
22
73
5
47
6
14
29
57
98
51
67
68
47
48
5
75
87
60
89
67
46
85
71
99
22
41
77
43
7
27
79
25
44
94
70
62
27
24
28
39
75
16
73
59
33
11
25
7
11
12
87
1
50
31
86
88
82
30
79
84
76
51
24
66
87
26
68
58
36
99
28
68
45
90
2
19
2
11
16
93
86
75
4
32
65
10
81
49
96
50
80
18
55
26
16
18
74
98
9
80
63
68
53
48
4
94
95
60
26
85
24
68
73
48
1
94
48
11
76
28
77
57
8
71
38
85
4
22
71
98
77
44
36
43
67
95
56
27
61
58
44
60
37
26
45
28
31
1
52
85
59
35
100
61
26
90
48
82
62
42
16
3
91
99
61
61
37
17
34
5
100
43
30
89
82
78
68
24
33
47
93
33
9
43
15
79
49
57
51
78
11
20
61
32
78
87
75
1
13
55
39
24
1
65
80
87
54
52
42
58
94
18
83
16
34
73
37
49
75
38
10
38
1
18
49
16
64
34
39
60
48
21
66
71
55
96
83
58
91
41
30
37
2
13
31
46
76
97
4
13
7
40
97
70
10
76
50
43
70
18
39
33
87
71
70
41
39
71
42
18
22
18
76
57
9
88
75
57
74
90
25
34
72
36
9
28
66
51
19
91
59
79
37
97
95
81
23
61
9
42
43
91
4
10
88
4
95
56
73
18
26
77
56
11
89
35
45
64
29
100
96
64
35
88
7
89
8
48
56
14
43
82
65
85
76
36
25
79
42
86
100
72
91
58
63
16
33
59
46
55
10
81
11
62
34
12
67
54
42
20
53
87
25
66
86
14
91
99
70
10
91
17
5
3
83
73
68
17
57
4
49
4
19
78
1
7
35
88
50
60
79
27
74
75
92
29
99
34
8
73
20
80
58
50
16
82
18
23
2
63
10
28
54
48
37
70
48
36
47
22
95
34
46
45
43
33
76
87
84
82
41
88
88
84
99
37
72
25
9
25
96
33
90
5
12
20
97
13
74
38
47
48
42
79
83
74
16
15
69
76
57
53
52
82
23
73
56
4
14
17
75
8
12
22
32
18
20
96
68
85
56
95
67
76
36
63
39
70
78
7
77
26
11
18
13
68
38
86
73
25
26
36
91
27
17
63
3
87
1
77
91
84
7
18
42
77
90
98
96
61
76
61
83
20
59
34
5
56
58
97
35
30
57
86
16
74
97
7
27
66
92
15
39
21
14
75
60
6
72
53
20
88
40
42
35
40
20
31
96
64
13
11
89
13
29
17
90
35
53
90
3
77
25
27
88
48
90
43
7
18
83
99
42
76
53
98
14
21
54
16
7
38
37
32
24
6
95
75
48
43
99
73
6
89
17
64
97
22
97
42
41
18
65
97
41
69
15
84
74
63
44
60
82
33
1
40
75
63
85
91
50
86
33
93
15
19
4
89
44
83
73
88
75
89
47
99
76
88
9
62
58
13
30
80
19
50
98
10
55
62
83
1
41
88
72
19
8
12
75
87
83
64
20
39
17
20
74
8
13
56
6
85
49
24
48
96
10
23
99
88
45
35
33
34
88
10
39
37
95
31
34
32
99
66
21
18
96
57
38
62
67
42
40
37
9
24
65
57
44
31
85
33
8
97
26
94
7
99
43
9
95
47
31
47
86
35
78
78
74
5
53
50
63
2
34
22
56
78
31
39
47
77
29
14
47
94
55
35
68
93
15
41
51
22
10
90
100
75
13
64
30
56
34
6
46
8
18
71
66
11
27
67
42
83
44
41
31
73
25
76
80
84
57
95
11
93
61
81
71
98
24
57
56
1
74
24
29
6
38
11
22
97
24
64
47
10
35
33
72
22
87
47
11
34
19
2
80
74
2
90
48
76
57
48
72
28
13
11
8
52
51
78
15
91
8
90
51
37
40
8
24
86
47
77
30
42
3
73
37
40
5
41
83
73
85
76
1
85
61
50
20
9
95
49
67
95
86
52
93
39
46
69
88
35
52
38
69
79
2
99
96
83
41
60
5
46
32
23
5
71
84
62
11
79
21
79
86
79
3
7
71
16
23
56
41
79
33
99
46
74
73
21
46
52
84
53
95
96
34
49
99
81
86
7
57
35
73
4
23
43
12
38
90
48
39
48
19
26
64
9
7
68
75
74
39
7
20
66
50
41
78
62
11
24
55
46
59
2
42
65
8
34
84
32
41
90
21
90
63
34
27
25
44
94
61
53
98
75
22
20
18
17
36
7
56
10
76
83
32
78
17
93
18
34
83
50
48
63
4
71
9
40
60
66
57
1
87
30
36
29
59
64
74
74
83
52
29
93
2
79
7
31
5
2
17
78
77
41
33
44
9
31
25
66
72
14
59
64
39
71
5
49
71
19
13
33
34
73
66
38
3
80
32
17
41
74
22
60
74
43
94
12
76
82
96
45
79
28
3
73
4
84
67
4
68
64
70
21
84
58
7
23
16
80
50
82
50
33
60
16
63
90
41
98
44
64
59
89
62
11
37
7
90
55
7
94
91
33
72
75
27
46
53
51
81
24
57
24
100
14
21
19
41
39
51
83
46
39
60
20
83
22
50
61
60
14
36
98
57
3
3
90
10
2
79
43
22
96
96
67
74
5
43
25
52
69
41
75
3
91
45
40
72
83
5
38
61
56
20
58
95
60
67
93
72
25
99
84
3
14
36
60
4
57
68
12
52
5
96
28
74
40
100
72
46
69
95
66
82
19
84
58
81
17
88
65
4
2
50
64
72
98
71
26
38
72
19
86
76
19
80
79
91
76
8
88
49
63
28
57
96
94
5
46
37
29
88
40
92
59
38
97
73
13
79
63
16
63
81
31
6
24
29
73
15
40
45
4
61
89
77
96
71
97
76
91
39
84
96
58
10
46
30
57
64
65
83
38
81
12
46
80
82
24
20
85
93
99
44
23
16
51
55
33
16
51
52
35
15
66
86
95
88
88
4
64
42
19
11
32
60
76
53
1
7
8
42
3
8
63
44
24
90
56
82
60
55
2
14
60
96
95
29
31
50
19
51
64
24
68
47
8
3
37
54
23
80
50
83
86
86
55
44
92
64
89
36
17
43
30
36
45
21
4
10
24
74
49
61
76
100
19
38
75
44
42
7
20
65
82
24
47
97
77
58
97
26
71
69
60
81
31
51
79
16
8
82
36
77
43
94
34
54
92
43
75
45
64
98
47
77
42
6
45
13
60
26
86
22
29
85
70
17
81
33
79
91
65
100
26
7
6
93
21
42
1
44
63
89
79
86
90
10
80
54
73
88
56
51
88
5
38
83
90
23
75
7
40
75
76
17
4
89
54
2
13
52
40
76
69
55
51
12
8
29
53
59
29
66
53
37
63
43
64
52
68
89
57
61
21
17
20
34
55
27
52
76
12
49
58
11
3
7
90
64
38
9
85
24
92
49
14
60
54
15
66
17
31
27
59
9
89
79
12
11
31
24
55
68
8
12
84
93
6
9
77
31
73
82
9
79
51
20
59
30
41
73
53
30
48
72
65
53
73
39
47
47
25
95
48
7
69
74
7
20
62
70
8
97
97
13
70
47
25
49
97
73
94
66
30
91
75
31
99
47
15
57
14
57
18
23
46
44
70
36
98
4
25
29
42
15
53
64
90
10
81
24
61
11
43
20
19
47
91
94
99
58
79
100
53
36
64
93
88
8
94
98
24
68
24
33
2
52
83
48
33
48
69
91
89
57
90
68
51
36
43
51
45
98
47
22
68
4
3
3
8
6
30
40
59
28
94
65
94
20
27
89
70
35
8
65
3
30
88
71
79
72
78
70
41
55
2
5
5
98
36
79
76
6
63
13
97
14
97
46
76
47
14
36
97
27
18
43
90
96
86
36
79
42
63
20
70
6
70
7
74
35
23
84
81
8
85
59
99
6
40
46
47
68
38
29
69
53
92
33
86
91
68
8
63
78
9
47
25
7
3
8
94
63
85
11
81
100
97
49
92
61
8
96
90
37
58
43
6
23
42
92
67
21
55
97
40
19
91
30
93
68
97
74
4
38
86
61
60
28
25
17
63
48
97
64
87
47
87
80
97
8
26
34
58
17
88
13
84
54
86
51
37
85
39
78
59
36
50
73
52
73
74
76
7
46
39
59
76
21
100
83
89
30
18
45
32
89
36
99
52
81
59
97
46
1
41
18
58
64
52
77
91
4
67
9
71
92
39
3
74
49
31
14
87
57
78
42
9
96
13
22
68
26
2
51
10
37
71
14
1
40
48
1
91
18
59
32
1
18
3
15
94
40
81
69
19
32
99
71
36
87
75
55
64
14
43
21
95
21
24
71
88
22
3
19
60
26
63
3
34
76
40
44
22
80
45
59
43
37
81
63
21
94
10
17
37
31
69
33
76
3
61
58
29
7
35
31
64
32
92
41
12
64
90
71
29
68
65
56
68
79
28
99
25
95
51
39
91
47
41
26
19
54
30
3
16
7
80
86
83
14
36
74
39
24
42
73
9
89
38
29
80
22
23
76
14
33
78
23
2
15
68
37
66
49
53
57
39
51
44
70
92
78
77
52
20
9
31
24
83
80
23
71
36
86
59
81
82
5
28
43
93
30
61
22
32
31
41
99
1
89
24
16
68
25
52
49
66
92
78
37
16
21
90
92
67
86
17
81
41
79
94
93
75
97
2
51
72
50
21
59
97
3
7
38
98
11
11
91
8
100
11
32
45
33
57
28
34
5
91
57
35
58
15
48
38
34
41
69
10
52
69
57
23
49
36
77
81
72
82
1
16
38
81
57
10
100
93
30
57
86
72
1
45
96
64
6
69
49
12
81
35
81
45
85
83
36
10
40
17
71
64
30
40
9
77
7
47
23
83
32
70
57
94
2
71
81
75
58
82
87
65
40
96
30
83
23
36
85
14
51
9
51
45
10
40
97
35
77
69
43
14
53
10
14
32
35
51
79
27
74
61
52
75
61
71
51
17
94
76
51
93
99
71
40
6
73
59
95
27
23
18
21
33
26
39
43
46
44
87
35
17
29
41
60
26
82
33
5
1
23
16
17
55
14
87
43
98
34
41
93
27
51
40
33
25
30
100
79
9
61
77
37
91
19
56
75
76
32
27
77
30
18
56
47
32
68
69
48
38
31
71
62
85
43
56
6
6
12
88
45
81
65
98
10
59
16
32
25
93
8
93
33
12
78
39
70
91
76
63
74
52
72
45
13
35
7
40
20
52
78
46
22
8
80
37
31
88
39
96
18
26
23
89
14
28
63
39
91
45
25
38
24
97
4
99
88
43
78
34
69
13
77
89
3
51
53
56
44
86
94
94
21
39
39
44
3
47
49
77
3
96
81
47
46
19
19
31
21
70
64
7
32
6
18
2
66
33
28
9
74
69
29
98
85
5
10
37
64
49
53
82
27
70
44
12
8
73
75
15
48
28
86
86
61
51
43
88
89
36
24
76
29
22
24
60
68
48
52
34
12
90
88
45
19
8
27
97
34
44
89
59
97
35
42
31
32
13
23
54
96
45
54
58
83
78
13
62
62
90
98
32
18
62
51
83
13
7
25
11
28
74
66
76
39
31
32
61
89
21
23
63
95
37
64
13
46
57
44
3
3
30
1
12
47
84
44
52
50
23
95
22
55
4
25
19
19
92
20
44
29
29
100
87
20
9
29
48
30
65
15
24
39
57
11
1
2
3
4
5
6
7
8
9
10
11
76
16
77
7
17
78
36
47
53
71
46
15
76
80
74
76
43
48
31
78
48
10
6
37
19
94
46
75
57
35
56
32
71
91
22
71
74
88
28
56
37
80
13
92
97
100
16
83
52
25
2
73
77
8
37
99
5
88
40
89
87
9
74
27
23
64
21
45
72
38
35
36
47
11
39
43
72
47
10
72
80
28
32
26
47
80
48
68
2
35
19
74
83
1
23
93
34
45
84
18
65
74
15
87
93
3
45
79
96
81
53
53
40
64
16
33
6
79
34
67
80
36
50
93
25
82
25
4
17
34
25
92
52
100
96
53
5
23
21
61
70
71
78
48
95
35
70
30
80
41
89
75
55
31
38
93
94
100
65
33
63
96
21
67
26
22
25
52
4
20
55
69
48
32
43
42
80
41
2
69
31
52
62
14
99
91
17
24
51
1
27
62
61
28
74
47
13
7
9
95
65
7
9
72
89
30
7
14
52
60
91
35
23
22
43
84
36
80
69
58
46
64
78
93
98
86
9
46
45
48
60
92
39
94
56
66
6
11
65
21
76
6
28
46
51
8
74
100
67
71
86
76
31
79
20
94
44
49
3
33
68
98
27
83
44
17
78
72
85
69
45
63
4
31
11
89
51
19
6
75
61
60
44
93
79
56
67
24
3
21
97
42
57
80
78
87
37
36
4
38
49
15
5
37
30
26
49
90
75
75
75
94
25
80
45
28
78
13
61
60
14
83
43
18
49
25
97
91
68
73
86
34
20
84
74
8
81
66
44
6
23
6
1
8
79
50
69
43
28
23
97
99
6
39
96
56
57
83
20
79
75
77
2
77
70
59
52
70
74
82
66
54
70
14
65
5
29
40
37
54
82
18
88
43
14
33
82
58
95
49
78
62
50
22
22
53
5
32
12
43
48
8
61
3
13
2
22
49
58
71
57
46
75
65
65
49
49
42
100
93
71
46
83
89
31
81
19
84
13
20
95
68
89
1
97
48
34
18
80
64
38
87
67
72
64
73
90
62
67
58
6
89
18
49
42
33
50
26
63
68
27
47
74
38
30
7
97
19
54
3
9
57
33
81
27
20
77
10
94
81
74
41
45
13
65
81
37
58
25
45
42
59
14
20
94
54
11
79
11
51
12
88
77
11
32
15
68
28
8
61
79
60
22
40
1
14
82
98
21
88
70
69
49
91
29
11
35
17
54
3
79
80
97
40
96
95
31
14
89
97
43
4
38
9
63
36
58
89
37
2
54
19
10
9
55
2
85
75
55
22
77
70
90
25
14
73
88
80
43
24
14
33
63
96
91
90
38
55
73
5
23
79
63
32
79
21
66
13
31
86
79
57
85
67
41
7
100
37
92
12
17
39
81
20
19
70
84
42
37
81
32
36
28
86
1
18
33
82
88
2
70
97
20
74
16
1
60
59
32
98
11
73
27
22
79
95
64
60
59
1
82
8
24
45
68
57
94
76
56
36
20
42
27
8
29
65
2
71
23
14
31
100
58
5
76
62
51
19
82
62
71
60
73
28
8
95
61
91
10
92
69
61
53
65
31
81
51
65
5
28
82
64
97
87
65
84
8
9
75
41
100
87
97
31
92
77
66
28
45
45
89
21
62
4
77
13
52
25
69
42
23
16
64
48
66
93
62
74
89
21
97
17
83
96
46
1
83
38
81
67
35
60
4
69
73
75
58
46
89
39
3
70
89
99
43
77
78
48
1
72
64
64
89
64
25
96
70
52
15
41
6
51
1
66
7
26
52
39
21
37
47
63
70
64
60
51
45
25
91
38
28
5
78
16
66
89
60
1
43
46
85
48
19
36
15
13
35
95
94
78
97
7
88
25
15
57
58
59
93
34
35
83
25
48
35
15
61
47
43
71
40
53
36
67
9
49
33
95
89
83
70
27
15
13
51
10
71
46
87
68
33
71
79
64
69
3
4
27
15
81
44
35
52
33
99
92
92
12
22
56
3
57
93
88
36
80
99
70
72
98
90
65
11
87
47
75
61
47
71
61
71
94
45
4
80
76
42
2
77
29
29
36
51
62
78
31
62
52
81
41
64
70
11
58
26
4
91
47
44
14
97
58
89
94
95
100
85
55
10
36
54
91
59
82
6
64
67
8
7
99
14
16
90
93
79
63
10
3
18
70
41
2
38
80
18
81
37
4
81
35
63
1
23
69
27
68
98
24
70
81
81
37
84
80
30
95
29
87
49
27
14
10
75
36
33
31
1
44
69
39
2
35
38
16
28
92
23
75
32
92
92
58
46
1
16
18
8
64
48
82
78
88
100
51
90
10
51
9
65
93
13
37
60
56
49
63
13
9
14
77
57
2
19
25
49
56
23
97
6
87
74
57
67
29
53
44
86
50
82
28
22
57
20
25
40
98
19
73
31
64
75
81
14
99
80
36
58
34
21
52
98
98
69
34
79
47
44
52
60
45
58
67
59
55
3
72
23
76
75
31
11
78
12
18
17
4
61
29
74
52
47
35
91
43
49
6
93
27
85
70
85
93
2
56
18
79
74
83
60
53
68
18
6
1
43
97
100
84
66
73
5
92
60
21
80
40
72
62
80
76
22
36
36
52
86
20
88
7
73
78
88
8
28
30
79
42
70
48
26
58
83
45
71
89
47
33
47
36
1
15
18
80
68
68
82
54
52
40
73
50
30
14
44
98
46
15
89
94
14
2
16
77
79
31
50
63
65
15
61
34
68
26
25
63
34
22
71
16
88
30
56
15
3
86
23
87
63
85
43
36
15
54
79
67
32
70
63
96
67
85
80
3
68
29
15
22
93
40
72
57
8
18
26
91
45
91
99
41
4
95
93
9
52
87
43
57
21
38
43
41
76
50
17
64
19
69
99
20
33
60
68
97
98
70
62
24
79
54
87
74
92
33
5
63
16
67
85
23
90
40
44
39
100
87
54
39
43
23
53
39
65
18
90
3
93
52
46
13
72
20
1
24
73
20
71
30
80
32
97
93
66
77
81
93
29
34
75
95
65
26
4
75
14
3
82
87
8
7
29
55
90
95
10
42
62
92
8
28
79
78
3
77
37
9
34
96
36
74
48
63
32
86
51
50
11
79
58
39
48
63
98
52
24
55
64
28
12
98
61
33
3
66
35
12
46
60
100
94
100
5
93
35
24
67
91
60
37
80
92
38
76
90
8
52
50
34
29
7
76
100
6
18
27
51
19
78
71
35
96
4
18
85
10
31
99
72
42
33
92
39
13
9
41
100
17
31
42
73
59
79
93
2
33
62
74
53
7
95
32
62
45
62
86
79
13
45
90
69
3
55
65
30
37
72
96
26
58
72
3
68
75
93
29
37
86
71
59
61
18
10
74
3
82
85
26
59
94
71
74
24
54
76
73
93
78
36
58
78
34
63
27
87
85
26
7
30
86
50
38
38
64
50
39
51
72
84
1
65
63
29
69
75
85
92
64
37
26
60
61
85
95
81
82
55
90
62
56
84
71
30
21
13
54
93
22
10
50
95
14
53
31
91
42
61
41
30
3
63
34
42
10
76
51
34
14
49
17
85
32
10
30
12
92
25
14
34
100
70
29
11
15
66
18
38
28
37
32
2
74
14
67
33
29
30
68
24
82
34
7
65
4
26
43
34
59
67
53
91
26
36
83
88
54
82
68
46
73
97
41
87
47
100
54
98
98
22
53
76
59
97
74
41
29
98
87
17
14
29
99
13
19
9
100
43
47
12
64
92
85
49
57
32
72
89
32
22
100
86
29
59
31
15
95
38
85
31
29
60
45
28
20
64
81
24
40
85
14
19
19
1
79
52
34
77
9
74
8
84
39
42
12
7
43
20
15
55
83
37
67
51
70
25
64
93
83
59
26
74
13
17
4
30
16
38
56
74
92
95
39
30
31
15
48
59
58
75
53
14
57
52
55
31
8
24
56
64
15
89
90
42
84
74
81
74
92
4
74
3
100
89
96
3
8
20
97
24
79
56
80
90
49
99
71
76
2
62
21
66
56
32
49
7
41
71
56
19
56
35
10
75
27
52
9
76
59
4
32
17
30
69
37
9
66
90
56
50
16
71
100
37
91
98
21
98
22
10
72
11
22
28
22
32
80
81
87
79
16
27
92
71
30
69
65
91
38
6
97
53
61
4
19
72
50
18
21
47
55
1
84
17
42
27
74
97
20
51
21
18
65
50
3
39
37
79
40
37
7
76
95
53
54
76
20
12
80
22
4
86
85
83
77
6
82
37
94
61
75
37
84
65
16
82
8
17
54
1
10
46
98
52
29
66
19
67
14
13
87
23
76
4
55
76
25
6
76
1
62
5
95
17
60
21
94
41
7
78
85
33
65
55
83
45
76
8
60
14
22
72
52
57
30
4
71
20
18
66
32
77
24
40
73
57
54
40
15
4
39
60
40
55
10
58
63
8
2
11
87
43
61
66
27
97
80
52
22
16
41
81
84
16
61
13
81
87
51
54
68
51
10
19
90
10
63
26
46
97
57
78
53
42
98
28
33
71
18
72
33
63
7
37
18
58
4
35
69
28
70
64
74
35
56
5
9
40
86
40
23
37
6
63
76
78
4
97
88
38
13
1
12
14
71
11
20
96
84
3
75
14
84
49
27
6
60
83
93
73
21
90
59
56
44
45
99
76
71
7
75
51
98
10
41
1
50
8
13
96
71
64
54
18
39
30
57
62
21
3
21
28
51
38
68
59
18
29
67
77
63
76
67
6
20
25
100
33
21
64
32
1
48
65
61
75
40
36
29
6
6
49
59
16
71
78
95
75
23
47
34
68
10
25
79
35
68
19
14
13
39
35
14
96
27
86
12
12
46
62
3
53
94
29
71
51
51
84
41
4
16
84
2
45
14
24
26
77
43
19
82
12
34
70
41
5
26
10
43
25
74
96
24
19
70
76
55
75
22
13
3
61
5
96
70
56
100
18
13
78
24
66
31
10
98
15
40
45
32
100
96
58
72
1
8
48
9
86
2
47
65
59
94
11
68
30
24
53
79
71
51
49
29
74
20
91
50
91
48
38
89
48
89
44
37
41
98
67
6
43
56
34
83
15
90
16
58
4
91
94
59
40
8
34
13
47
60
96
49
62
98
9
83
16
43
86
39
68
100
60
42
69
53
6
51
50
75
14
31
80
31
16
63
12
23
74
58
28
52
3
66
50
96
64
61
85
86
57
20
70
97
39
47
88
29
86
58
58
70
42
89
48
36
60
83
73
84
34
98
55
1
1
23
5
1
74
84
23
55
91
92
71
6
69
69
5
37
51
34
80
11
3
76
89
9
84
48
45
51
48
60
35
48
80
9
84
42
23
74
4
88
71
91
88
95
44
86
24
30
34
36
54
93
56
91
70
32
57
1
11
83
15
81
78
21
39
87
10
12
33
15
29
86
15
16
88
23
73
24
47
14
36
41
5
78
24
22
27
21
47
10
59
24
19
85
53
10
39
38
1
47
2
100
81
65
86
90
3
70
97
87
2
58
75
90
50
76
39
7
90
7
91
98
94
34
67
22
46
57
65
86
6
80
73
3
24
79
28
81
96
37
61
72
7
33
94
32
75
49
84
62
82
53
99
79
11
35
79
60
73
100
89
62
3
83
100
70
29
19
76
20
43
29
60
97
58
41
7
83
18
85
96
6
95
94
91
2
68
94
47
58
36
99
7
41
73
65
36
97
46
32
41
88
38
11
88
71
33
36
17
4
19
57
5
51
13
18
55
81
89
33
39
46
46
48
32
18
56
32
88
30
94
67
99
49
81
92
20
50
10
51
60
29
77
29
69
6
77
29
68
49
16
13
76
1
91
40
74
24
82
62
46
23
4
73
54
18
76
53
95
4
55
38
87
38
65
54
22
97
18
13
67
12
8
81
18
30
18
89
40
5
16
11
35
30
64
97
18
25
66
13
17
88
29
63
36
43
27
62
85
88
49
52
88
79
89
54
92
96
37
56
93
46
66
29
80
30
26
81
41
14
21
51
10
11
40
39
69
52
56
98
91
24
95
38
76
6
91
89
69
1
15
57
64
17
10
10
42
77
9
48
33
14
97
47
85
29
74
65
50
29
43
55
7
10
29
28
81
14
23
27
47
77
81
40
90
73
42
36
10
54
76
26
20
28
58
97
3
80
20
43
46
1
95
58
92
37
94
23
95
17
4
56
46
28
78
37
17
78
13
24
89
75
11
58
99
35
25
38
82
47
8
38
20
62
70
62
33
55
74
53
75
30
2
81
65
99
36
84
31
35
82
74
55
50
43
1
56
18
67
91
68
96
20
92
37
46
99
90
58
4
9
67
74
76
38
99
40
68
60
41
21
6
46
63
68
87
84
40
69
27
58
86
13
82
57
44
76
31
74
74
16
9
28
10
98
12
53
7
88
71
92
89
46
86
10
71
33
83
36
21
62
46
81
86
31
89
53
27
61
19
65
63
22
5
66
78
37
23
86
5
9
53
82
91
83
50
50
18
96
67
33
38
39
37
61
23
4
13
100
6
58
49
19
29
15
31
33
90
57
30
44
68
15
27
43
20
30
16
82
24
21
69
83
57
99
10
92
87
42
86
60
78
85
74
2
33
5
32
77
92
43
78
95
59
61
22
6
56
95
33
56
91
71
78
66
100
92
60
72
1
97
71
55
46
85
57
70
9
11
86
56
6
63
96
4
35
36
99
81
14
76
48
17
12
100
92
64
90
55
20
100
35
89
94
100
13
16
47
56
100
43
61
96
11
33
11
19
1
76
27
60
6
64
47
19
40
73
29
53
73
55
49
22
13
11
33
96
98
99
8
100
64
46
8
2
74
99
76
23
71
38
18
43
26
81
50
77
19
96
27
70
85
59
62
57
89
29
54
26
21
18
19
39
22
19
35
23
85
59
83
66
84
90
2
5
82
32
53
60
88
52
79
52
72
91
17
28
10
94
96
10
9
40
20
54
63
83
29
46
88
26
6
86
43
51
72
36
49
47
32
30
90
19
41
12
25
94
31
31
23
62
1
28
99
90
61
18
33
8
19
75
78
62
34
43
12
1
79
62
42
84
11
84
88
35
89
88
40
29
30
36
75
45
38
65
29
94
89
57
94
50
83
82
47
43
77
15
82
8
89
46
25
47
39
35
54
32
95
95
96
32
10
62
45
29
76
19
75
45
67
37
41
84
80
15
26
25
46
32
8
81
41
52
27
10
5
9
50
19
11
96
48
60
63
38
48
14
56
57
80
93
62
16
34
80
48
85
100
39
1
78
74
36
73
45
79
15
31
39
65
43
69
25
46
57
4
94
67
36
49
35
19
54
95
58
44
8
95
62
95
46
59
30
88
92
84
66
98
56
37
51
99
5
50
16
3
73
35
73
40
26
58
65
50
91
62
65
85
74
79
54
63
82
25
79
7
88
51
53
42
96
23
64
14
90
19
5
26
20
46
83
47
32
18
87
61
17
92
51
79
70
74
89
99
49
67
75
45
26
74
85
73
73
59
3
20
20
20
27
82
93
61
39
42
82
49
17
94
49
16
52
27
99
62
57
50
11
32
100
87
52
83
66
92
8
75
3
33
14
38
87
9
50
99
88
72
20
42
31
90
27
56
13
64
17
84
81
73
35
82
82
62
50
73
25
99
11
53
66
7
15
84
37
96
54
5
66
75
10
46
30
99
48
58
73
36
34
72
41
72
92
86
89
78
85
43
83
99
42
19
64
78
94
80
16
87
10
63
75
73
51
1
56
98
98
22
53
40
84
100
25
25
75
36
76
63
54
97
47
72
48
84
45
41
85
15
63
14
86
30
74
27
5
35
70
71
19
26
59
13
74
12
94
70
48
51
96
23
75
4
94
98
51
64
69
43
93
25
64
56
26
96
41
30
19
88
100
24
3
10
10
100
34
3
54
76
28
30
6
66
93
48
25
38
20
94
78
16
20
58
53
7
47
50
54
50
34
40
35
30
69
93
63
26
81
85
70
51
43
82
47
99
32
13
26
64
46
82
17
39
41
50
61
60
96
98
76
41
31
60
42
26
52
75
39
24
9
85
19
50
76
60
59
37
42
41
68
47
77
5
41
72
31
23
32
77
24
11
51
67
76
61
49
69
34
22
84
78
3
17
55
20
36
38
44
49
18
43
5
8
13
18
84
39
51
65
65
18
20
10
71
55
1
51
3
53
6
7
31
42
5
94
52
79
80
41
68
97
55
22
71
62
86
71
35
51
70
77
43
36
35
61
61
60
95
90
47
64
14
3
79
3
65
5
40
25
14
32
61
81
82
3
50
96
50
37
54
49
18
56
1
87
58
26
16
36
96
72
75
49
8
24
72
77
39
58
89
57
76
43
7
95
43
87
80
64
75
54
65
56
86
70
66
50
12
59
80
13
56
11
56
79
3
77
74
17
79
69
8
48
65
91
11
36
25
59
72
18
81
32
10
28
74
82
17
38
86
90
46
2
8
29
95
5
62
36
86
6
61
2
6
77
95
22
13
61
29
17
56
53
63
4
55
86
73
3
40
90
24
84
96
46
15
43
99
65
84
4
42
64
94
23
78
94
68
49
16
17
52
43
59
52
59
76
74
44
1
61
11
22
25
92
9
86
3
55
43
34
74
82
66
11
54
74
21
53
67
78
95
99
83
58
38
39
22
46
24
60
99
7
8
88
77
40
22
93
82
45
36
90
59
67
81
42
63
78
72
29
14
99
53
51
83
28
56
34
57
82
95
4
39
69
36
2
31
96
36
67
24
21
20
82
57
20
58
76
58
40
68
6
47
14
23
62
16
87
11
32
72
43
96
72
5
30
56
7
33
66
82
88
80
12
58
56
8
73
68
54
13
69
80
12
32
29
70
7
49
2
11
100
14
79
77
54
80
33
34
48
8
91
61
49
15
8
21
22
28
79
66
30
19
38
34
52
24
64
81
54
29
29
29
94
25
93
9
61
86
60
1
52
18
77
8
24
62
60
58
12
6
12
4
67
40
74
48
85
4
35
74
15
26
31
68
60
1
1
68
79
50
19
18
6
9
31
83
48
95
37
82
81
41
48
15
66
72
32
58
56
82
71
21
73
37
95
86
34
47
56
72
45
43
71
29
34
66
10
90
73
77
37
83
24
11
14
61
31
59
93
6
43
34
80
35
55
84
25
68
30
48
81
59
100
76
100
72
47
92
1
61
88
53
63
99
27
4
4
64
45
52
29
92
100
19
89
35
82
68
41
12
40
20
6
32
65
95
94
45
5
13
91
32
39
29
55
45
38
30
18
81
90
58
36
86
6
53
19
7
14
18
47
53
74
77
45
87
53
69
53
12
80
27
13
46
53
56
24
87
49
18
68
43
3
100
97
28
80
45
13
66
4
2
1
75
69
80
26
79
92
90
97
19
37
27
8
55
90
63
70
57
52
39
45
95
6
79
90
31
23
61
51
98
54
97
28
93
89
95
76
23
87
38
89
39
55
85
30
62
17
62
30
11
75
12
7
7
33
34
72
36
10
23
68
90
29
89
95
44
81
40
75
50
97
12
81
87
36
27
98
62
85
97
46
2
56
39
24
50
82
55
63
4
50
38
16
6
20
35
100
7
27
68
99
72
23
36
89
43
34
23
44
38
55
11
29
45
45
97
64
58
84
45
78
38
64
44
70
87
37
74
3
38
76
23
65
72
58
39
56
23
59
70
72
50
64
29
59
85
79
53
50
37
15
100
52
10
54
6
92
73
47
14
39
3
56
70
95
22
35
64
1
33
53
40
84
84
35
66
29
78
73
24
62
26
100
13
27
26
26
13
47
74
9
1
45
66
2
16
68
85
91
33
34
15
48
94
89
20
27
98
88
16
91
99
4
3
47
18
43
72
94
93
43
53
34
4
66
89
76
42
45
90
16
94
14
22
62
46
65
37
79
8
49
46
70
18
8
19
24
62
73
17
50
64
4
79
38
79
91
42
60
20
8
36
23
73
89
1
40
95
83
17
37
44
31
63
52
45
19
20
37
35
20
100
10
71
45
30
31
24
82
3
27
52
99
32
86
31
28
49
71
35
94
86
21
2
31
86
16
10
47
27
95
31
84
37
53
56
71
75
62
39
20
94
71
33
95
48
98
18
18
17
73
71
3
52
60
47
56
49
49
65
19
86
20
23
16
100
39
37
98
79
71
21
14
14
83
37
73
90
22
76
61
83
33
14
24
40
90
74
70
19
79
26
96
17
30
89
18
81
63
46
65
33
69
97
37
77
81
52
34
49
81
57
18
70
82
56
38
67
37
60
42
100
39
79
34
58
94
70
31
71
39
90
95
42
89
95
17
80
23
68
57
77
4
48
16
57
24
85
66
24
84
37
86
13
48
28
32
42
60
21
40
86
49
40
91
63
6
41
86
99
61
86
53
53
31
83
56
36
77
75
9
31
78
88
19
89
62
72
92
45
12
23
55
91
56
52
76
62
3
95
25
13
40
10
93
13
21
84
23
64
67
31
50
48
15
86
64
87
19
7
90
31
93
60
55
43
10
73
85
65
78
7
75
4
16
94
29
15
81
25
3
93
35
79
69
50
95
63
89
76
25
7
66
35
71
4
52
71
54
55
7
57
17
84
9
57
37
19
44
12
63
16
4
33
5
36
29
11
69
61
98
12
2
78
42
14
17
12
19
47
68
47
70
13
4
31
51
36
69
46
18
24
86
31
20
72
80
47
16
5
31
67
77
83
68
61
28
62
39
82
8
89
98
38
68
31
28
46
77
7
100
11
78
69
96
24
14
20
44
76
80
100
46
7
70
22
34
52
39
60
10
84
23
64
65
71
39
66
86
56
70
54
24
38
67
56
79
88
45
37
12
81
90
20
47
95
72
79
60
47
77
98
82
38
26
32
60
54
42
15
93
60
99
14
75
7
18
88
82
69
93
21
74
80
54
22
59
2
30
7
99
46
57
21
47
43
11
65
35
14
61
71
42
39
43
33
47
1
38
40
5
39
11
17
26
94
8
31
7
4
43
68
86
49
51
28
13
74
94
85
22
78
8
99
62
14
34
56
69
94
83
28
44
17
7
71
91
9
54
80
38
32
44
20
35
82
88
47
35
15
34
46
23
34
98
81
77
35
75
32
68
90
44
97
16
57
70
54
28
72
51
30
95
5
59
74
45
90
26
52
99
96
90
100
41
21
39
99
13
6
12
57
82
67
8
12
38
19
7
4
36
77
48
26
57
29
18
13
88
48
71
58
14
60
29
11
34
9
1
18
16
46
85
98
91
73
37
14
72
52
93
70
9
12
49
46
27
3
100
28
13
81
42
53
10
41
89
21
80
55
23
37
47
64
31
81
36
28
33
17
40
28
48
56
25
74
96
53
75
10
84
77
99
48
41
34
31
51
69
95
87
33
57
56
29
99
15
86
94
99
88
6
84
30
28
29
21
27
77
61
63
23
87
13
6
59
97
46
30
55
65
73
23
57
80
93
5
19
11
57
53
94
65
80
12
46
1
47
38
61
56
6
30
5
33
25
29
29
25
29
74
49
3
11
91
25
52
83
11
45
9
83
92
2
14
50
27
79
84
61
87
38
30
13
39
82
38
71
68
7
67
14
66
44
30
81
90
42
14
9
71
9
53
49
91
78
52
85
66
11
76
22
68
86
22
94
56
60
56
66
71
87
85
66
44
87
66
43
62
22
28
71
60
96
44
24
23
56
16
30
67
71
7
51
89
75
16
21
33
67
45
63
25
34
95
88
52
17
75
77
77
87
75
50
88
12
15
45
3
30
64
38
71
76
51
19
22
84
15
72
13
61
84
80
61
56
73
66
65
31
12
71
99
33
94
89
15
31
84
4
63
61
86
94
75
53
5
22
99
40
80
2
96
53
36
100
64
71
75
17
13
16
29
81
50
20
54
64
19
60
27
94
18
77
79
27
43
85
46
50
12
5
47
99
42
34
66
15
63
90
91
71
63
85
20
8
32
89
20
47
24
74
59
92
90
63
45
75
95
26
39
16
29
78
70
80
30
96
10
48
81
67
77
61
4
78
97
67
63
48
69
68
24
67
31
88
17
42
1
34
2
53
34
50
11
60
89
19
63
96
67
17
86
81
90
11
33
31
32
79
80
6
98
1
20
66
91
30
21
83
54
58
99
11
89
74
74
98
21
1
74
30
36
19
62
19
56
97
60
69
27
70
44
23
85
98
14
93
29
30
31
41
8
53
88
74
61
83
5
53
74
75
45
53
12
78
39
50
37
75
10
15
22
73
19
5
69
94
3
100
25
14
100
38
25
99
62
49
15
79
96
44
98
24
30
77
98
92
11
13
1
80
30
48
68
52
77
50
14
27
43
72
62
15
42
6
59
1
20
72
71
11
91
58
88
30
77
9
39
86
53
40
36
8
28
24
68
29
52
20
66
70
55
84
40
37
37
85
5
61
59
61
32
93
8
46
76
23
62
46
75
36
62
10
38
94
46
64
87
93
52
70
42
95
7
30
30
34
5
75
43
21
56
18
45
6
44
73
65
21
21
66
54
42
96
21
84
7
13
63
15
71
82
24
77
25
94
80
83
22
65
12
55
43
25
39
86
3
61
94
72
91
89
94
80
69
75
9
99
87
60
51
89
38
82
40
15
100
22
61
36
45
67
19
5
18
1
98
38
31
10
22
11
98
32
39
67
38
81
47
5
17
78
1
82
7
88
71
73
73
54
35
89
56
48
58
74
100
75
68
97
13
84
25
93
67
70
93
3
18
7
34
21
88
27
45
95
4
97
99
26
5
58
65
66
43
100
10
60
63
88
47
1
33
100
19
19
71
21
74
62
1
36
72
46
43
8
39
87
4
37
86
5
53
84
70
52
75
76
59
76
83
23
46
51
62
88
2
77
59
50
59
74
75
64
40
53
85
39
20
58
46
27
6
27
18
82
50
70
71
91
42
13
90
17
16
30
72
59
89
57
42
21
42
14
57
54
18
63
45
37
28
71
89
43
2
55
77
47
32
10
16
82
40
40
93
90
43
11
76
37
20
5
97
86
92
82
22
23
74
75
27
54
25
49
40
27
61
12
90
9
51
63
2
97
34
65
12
90
70
8
42
6
77
25
35
65
74
77
58
99
71
43
27
26
45
22
8
4
55
21
28
99
37
17
65
9
72
45
91
57
33
88
39
55
50
73
27
63
32
15
26
96
14
37
7
2
38
76
99
60
55
92
64
35
7
58
54
28
86
98
8
71
89
70
77
3
23
22
85
56
51
88
8
37
58
56
33
43
80
92
79
7
34
61
9
38
12
40
92
53
37
26
59
74
17
79
46
32
34
16
18
29
68
84
79
72
83
49
80
70
44
16
95
64
41
74
32
87
77
74
1
25
55
84
44
45
1
95
80
36
21
12
10
73
93
98
21
36
42
34
16
1
83
70
77
63
77
69
82
45
15
11
38
8
53
66
36
84
2
66
66
37
11
91
77
22
83
79
29
77
48
91
25
59
44
90
62
55
86
9
18
78
27
51
31
73
26
9
20
62
96
19
76
42
52
89
90
4
47
20
94
28
4
41
98
67
64
72
25
100
93
12
28
11
79
67
81
17
47
13
51
40
59
43
30
76
39
87
9
37
68
13
10
61
16
65
48
79
27
63
56
71
21
29
20
22
90
57
5
3
19
53
67
24
37
20
99
67
44
15
36
8
31
6
87
36
68
66
86
56
76
22
53
20
20
6
97
27
65
16
60
12
82
95
57
3
26
43
28
90
30
14
67
88
13
41
42
59
89
82
69
86
29
98
72
78
46
28
90
23
33
56
24
2
22
76
72
88
14
79
38
70
32
11
97
46
61
81
1
45
37
75
51
19
15
91
41
36
2
76
94
23
55
71
30
20
6
1
54
68
32
86
48
4
9
29
10
50
81
76
96
7
89
16
12
90
56
97
45
20
45
98
52
82
4
37
17
99
59
51
37
98
89
3
10
34
14
85
2
4
7
23
33
67
10
10
41
58
70
89
74
96
86
39
69
51
36
15
40
42
14
76
84
49
80
31
30
41
5
19
96
44
7
99
50
14
61
46
65
61
46
78
64
52
79
83
23
79
83
8
25
6
24
3
35
64
8
59
76
34
42
76
29
61
78
14
70
41
63
54
8
44
70
55
68
64
18
48
34
96
54
78
46
100
41
47
38
76
78
28
24
60
33
12
15
87
72
27
17
69
93
99
30
52
19
87
41
13
72
88
69
61
96
92
80
22
76
83
56
33
96
14
14
85
90
20
33
33
41
47
47
35
64
61
98
23
41
26
63
21
71
90
58
77
56
60
62
22
27
79
78
13
48
91
81
23
73
99
94
29
69
32
93
17
73
14
17
6
95
94
86
100
62
64
31
43
41
4
98
4
30
81
89
14
13
95
72
33
31
52
52
7
100
33
93
27
19
42
90
72
61
69
24
41
44
41
77
89
13
55
51
67
14
47
99
56
66
84
47
90
95
73
53
21
95
20
69
25
46
97
43
27
91
2
65
25
65
66
84
96
94
63
63
58
1
18
24
97
94
21
76
43
34
36
78
20
12
1
12
49
85
42
89
71
17
69
15
59
84
43
33
15
81
100
60
81
10
29
59
6
85
38
79
27
27
68
48
76
95
6
84
70
76
82
89
65
32
3
16
79
74
83
63
33
86
67
27
67
27
13
28
11
92
26
67
67
52
2
21
85
55
77
2
37
37
72
45
31
17
45
80
49
28
52
100
4
69
88
77
11
73
70
68
38
5
100
35
62
59
89
95
80
38
73
94
53
41
95
47
30
40
1
91
76
46
36
82
61
72
86
85
62
70
60
84
3
83
52
6
26
31
53
24
81
62
21
89
69
74
25
38
16
11
29
19
2
7
48
46
40
39
57
8
60
79
80
14
33
26
18
45
90
51
35
38
21
64
90
86
54
24
48
57
43
96
59
74
26
14
54
39
13
38
42
27
35
74
75
71
81
90
29
81
54
21
14
88
68
72
84
88
11
67
75
2
12
65
47
46
22
39
16
57
91
58
84
11
39
80
35
99
85
100
61
43
52
41
62
85
46
83
60
82
56
32
32
24
52
72
63
67
16
87
95
88
8
88
51
44
52
67
3
69
39
17
21
20
92
100
22
52
56
66
90
40
37
71
84
98
99
51
68
60
92
14
38
95
13
74
16
87
95
19
4
29
43
90
9
77
26
94
83
85
61
97
12
11
25
59
72
38
54
16
16
59
39
87
61
76
13
49
78
44
68
44
46
43
11
83
70
21
40
56
26
89
30
97
52
71
90
14
86
48
88
31
38
20
66
54
56
33
5
41
19
77
95
4
52
56
87
28
50
71
27
81
19
77
92
13
71
23
65
71
18
35
21
27
10
16
37
4
49
59
100
89
43
19
91
91
94
76
17
78
35
82
65
19
59
63
36
17
35
14
48
70
98
33
66
73
68
74
65
38
100
6
12
33
72
26
62
29
65
44
6
14
11
90
21
86
94
54
40
65
22
3
55
31
5
27
88
71
39
91
82
26
31
57
93
72
6
85
96
17
42
80
42
55
54
70
14
35
19
13
65
27
28
79
75
87
44
97
33
42
73
22
77
92
53
76
29
74
63
80
33
100
80
46
47
27
83
79
58
88
46
44
19
2
95
63
1
33
97
43
5
83
58
30
91
43
5
14
24
48
32
99
77
4
27
24
31
28
11
62
66
5
46
86
69
85
100
18
99
28
71
46
36
67
12
29
1
66
11
11
3
10
83
58
26
40
24
4
52
11
15
52
12
32
57
10
75
12
52
72
34
40
65
1
72
71
73
51
96
58
77
10
90
41
50
81
84
41
29
39
95
96
35
32
96
61
9
47
30
44
68
36
86
84
14
75
3
32
57
91
44
35
92
78
79
73
19
54
59
21
3
57
22
34
43
14
21
98
15
35
94
22
40
52
57
25
69
51
9
62
59
80
13
100
93
98
44
23
62
94
86
67
93
7
20
95
41
21
30
38
88
49
38
77
29
18
15
31
73
75
55
28
47
65
27
98
85
57
84
54
66
99
95
63
31
49
10
77
91
11
67
76
75
64
14
53
28
79
27
86
18
92
34
70
41
66
87
90
94
8
30
82
88
28
65
7
1
20
21
94
50
86
45
40
15
37
21
26
97
82
43
84
62
12
36
54
50
53
48
3
19
77
93
71
37
64
9
52
83
96
49
89
79
25
57
40
25
6
14
82
68
9
2
18
54
43
82
86
50
22
72
62
15
75
96
7
59
48
62
87
83
83
93
89
90
25
30
39
98
51
25
81
86
55
5
13
19
47
87
25
15
41
83
28
84
25
79
5
9
63
87
89
95
40
66
46
17
15
62
18
65
45
49
12
76
23
32
98
83
23
29
81
50
96
93
99
13
17
32
7
17
40
86
78
12
64
73
22
33
82
33
47
30
16
89
67
72
53
75
47
33
8
90
82
61
40
64
67
25
17
34
83
42
57
48
76
27
90
1
30
54
31
4
69
44
38
39
64
85
86
77
65
98
39
99
49
27
96
24
87
97
27
53
37
64
84
44
44
35
43
41
62
17
67
43
17
92
38
41
38
53
83
68
87
38
40
93
6
62
29
20
95
79
51
66
96
1
60
42
74
96
32
3
14
68
30
99
28
15
77
83
15
71
75
10
9
23
99
50
61
34
66
44
76
100
50
68
84
56
98
90
80
88
99
20
22
47
5
20
54
37
7
100
95
60
40
89
80
13
85
98
23
24
78
25
10
63
48
17
35
68
62
98
67
84
65
59
88
32
3
27
5
3
12
10
17
69
93
3
30
28
10
73
77
64
50
74
12
67
24
90
83
86
19
78
7
50
37
87
12
39
63
57
98
79
56
75
89
10
70
15
61
5
76
68
80
31
41
39
23
34
24
22
28
40
24
70
92
41
100
93
1
96
33
39
35
25
99
100
5
77
85
77
49
63
74
90
100
70
25
14
75
79
86
18
10
42
86
88
95
3
8
35
36
43
61
23
11
98
99
39
6
87
32
51
31
4
74
86
90
30
83
84
19
61
69
98
28
63
48
30
93
27
74
92
87
99
44
51
68
23
58
96
85
55
13
78
48
29
29
49
90
29
97
34
11
1
33
82
44
37
22
90
78
33
42
95
51
59
67
59
51
26
18
72
61
88
10
21
39
55
3
24
10
82
90
4
2
7
99
89
41
33
50
82
38
4
97
66
69
6
97
55
41
17
42
50
96
25
19
28
86
55
71
4
26
60
60
82
97
61
80
64
66
63
73
52
83
79
70
11
63
47
31
33
46
88
44
69
69
89
7
88
26
1
82
79
64
58
88
14
65
98
47
68
41
3
79
36
51
90
96
1
15
87
82
27
87
65
2
12
89
38
43
5
21
90
18
60
76
87
58
85
70
19
15
69
56
58
33
89
27
69
60
86
83
2
13
38
40
67
20
24
85
95
30
87
30
84
9
35
100
96
82
61
29
75
47
36
46
67
99
93
78
90
59
27
67
41
47
30
36
57
38
71
46
46
12
76
60
9
42
36
91
12
83
85
82
34
1
47
39
9
26
94
17
42
30
4
94
58
55
46
71
49
35
55
21
67
23
9
30
29
10
32
56
76
8
44
60
47
85
71
91
15
92
40
5
48
70
54
47
64
10
35
44
85
46
23
44
68
57
61
18
58
99
4
25
7
18
28
29
67
24
51
96
10
61
43
17
40
55
76
63
36
84
29
48
77
60
62
31
25
49
59
35
42
23
67
38
67
82
80
47
4
38
26
96
78
48
75
15
61
79
69
3
16
5
52
88
71
20
28
85
61
83
14
83
6
81
5
18
40
65
71
94
51
92
2
37
40
40
6
40
61
73
79
2
47
8
3
79
9
45
12
67
34
44
7
96
23
1
99
14
63
15
77
93
7
23
32
23
42
28
65
29
14
89
29
27
46
83
50
95
37
70
52
41
3
75
50
50
66
74
2
65
71
69
42
55
80
41
60
7
95
51
93
97
36
68
66
81
71
49
87
78
74
99
53
78
59
41
68
93
95
69
87
7
58
73
79
24
9
79
90
42
78
29
42
45
96
7
64
35
75
100
47
39
72
17
66
88
49
10
27
35
19
15
50
5
29
35
56
3
49
71
63
29
33
97
92
38
46
49
74
2
7
86
12
25
13
54
77
40
92
11
38
99
73
58
60
66
2
20
86
29
17
60
74
43
49
39
16
85
84
3
52
95
13
21
35
40
52
18
39
47
15
44
98
26
48
91
20
18
99
78
37
86
47
80
65
51
64
24
97
25
70
60
93
85
100
41
48
50
2
77
89
16
25
5
60
59
58
51
9
68
39
29
39
60
64
93
32
98
70
80
82
78
37
92
74
59
63
99
46
39
46
1
25
39
36
86
39
74
86
47
28
10
88
44
95
72
75
61
83
74
1
66
81
51
51
98
69
14
21
4
44
35
29
23
59
92
50
69
1
59
12
79
27
94
65
75
8
75
80
7
65
41
42
70
59
62
10
81
96
73
27
30
90
88
9
45
31
4
68
88
44
48
28
59
50
90
98
25
92
17
42
54
1
15
64
68
72
23
89
79
6
3
62
87
30
25
9
72
69
75
76
38
75
59
50
25
63
52
43
56
70
59
79
53
79
38
4
4
88
70
67
65
13
18
34
9
92
4
68
97
88
91
72
27
25
45
42
68
17
36
70
87
29
25
22
4
33
64
75
96
5
24
11
95
86
83
56
63
53
40
30
86
22
43
24
83
89
92
49
3
66
75
45
28
3
95
21
70
78
20
35
77
30
76
62
91
42
8
77
36
91
33
36
28
80
21
50
44
77
91
45
57
55
40
52
82
99
99
54
69
99
44
91
25
60
44
28
67
87
53
42
68
21
98
96
67
90
3
42
72
1
15
70
60
62
41
13
20
37
45
66
37
15
48
16
74
32
88
25
47
94
3
34
4
90
92
7
40
91
86
41
85
22
29
66
16
8
1
6
5
10
27
65
70
20
1
100
8
69
24
56
20
29
19
68
4
24
54
44
12
88
35
23
38
46
44
33
4
2
56
44
26
34
31
22
68
4
52
11
1
99
80
13
22
7
29
73
88
88
23
49
31
100
1
24
18
60
1
74
62
19
68
49
2
13
41
17
38
56
90
92
39
10
92
82
87
97
4
16
17
70
57
65
52
93
30
71
36
90
25
58
4
10
50
4
33
46
87
12
30
47
92
61
84
99
91
2
65
9
67
96
96
29
30
68
20
39
15
99
62
74
10
96
78
45
59
46
33
22
21
48
81
67
99
77
6
78
33
20
86
88
2
13
54
23
43
62
39
78
24
18
55
90
31
67
11
30
45
19
90
63
9
85
75
95
73
9
72
60
8
71
91
78
71
54
12
46
3
99
53
71
47
95
89
71
74
30
45
41
64
61
77
17
73
24
4
84
77
83
75
23
8
17
77
3
25
62
57
65
56
86
68
56
75
71
62
84
59
32
83
51
75
80
91
71
1
50
71
19
72
51
22
2
95
10
21
82
52
69
57
80
91
26
3
67
37
24
35
91
33
2
42
40
95
63
43
61
3
100
7
78
93
85
27
24
46
10
55
54
42
72
2
92
67
72
53
79
4
8
26
97
31
66
65
79
9
22
10
61
86
92
42
4
86
75
49
52
65
40
58
45
21
45
8
90
29
11
1
1
9
26
87
65
46
59
50
86
89
74
85
20
55
90
16
31
34
28
28
61
14
81
70
92
58
57
23
23
6
93
21
21
12
4
30
17
3
62
57
4
51
25
43
48
52
2
36
65
15
81
76
50
87
12
46
94
2
39
41
77
19
81
64
19
15
35
7
75
56
10
3
22
37
69
65
98
93
85
40
14
12
24
2
72
7
76
47
71
59
50
39
45
83
32
38
56
39
63
75
50
25
59
75
57
27
2
82
15
15
87
37
34
48
58
84
3
1
35
23
87
93
69
86
89
51
81
49
64
73
90
19
47
9
38
73
34
93
2
21
42
71
33
96
28
87
71
2
98
78
61
18
98
68
48
30
81
40
86
65
32
23
77
82
85
34
24
69
82
14
81
5
38
29
85
93
42
62
27
87
32
36
96
99
76
48
62
19
56
60
35
39
35
68
26
68
32
12
36
30
29
46
21
64
84
6
62
29
79
44
50
85
8
69
53
41
52
70
65
80
68
50
29
2
78
70
49
87
62
24
63
42
37
26
15
56
91
97
6
33
46
37
33
70
44
48
95
11
70
51
30
89
89
28
21
73
44
18
86
100
20
79
92
56
26
82
21
72
94
12
78
1
28
89
25
23
66
35
47
23
38
80
60
78
6
16
64
34
6
14
62
72
2
48
27
78
33
86
99
100
91
17
7
10
45
96
45
72
65
7
37
83
33
38
94
5
45
73
31
18
12
44
68
17
81
83
93
69
38
78
70
88
18
97
34
12
49
60
18
2
93
22
10
67
37
79
35
58
15
61
8
5
70
12
26
15
98
47
59
93
55
28
25
46
37
44
100
94
84
91
66
46
3
35
76
49
94
53
51
30
97
82
89
81
95
95
49
62
73
83
33
76
28
24
57
65
8
45
93
17
23
43
95
16
87
17
52
50
87
6
55
49
62
83
45
57
76
30
78
55
100
14
18
2
18
4
8
66
48
41
36
8
52
3
29
76
41
62
33
58
3
75
6
67
84
48
69
83
26
35
14
44
7
1
100
73
5
11
95
58
50
48
36
97
63
99
16
82
63
16
57
68
44
92
74
33
96
72
59
97
55
15
23
92
95
42
30
13
30
69
85
64
75
25
85
33
32
5
47
43
26
23
32
90
42
31
40
100
8
24
29
6
82
51
82
87
10
52
29
93
73
44
79
15
5
49
14
92
54
50
21
67
74
36
23
85
54
4
42
99
49
73
91
5
92
50
42
84
95
85
79
4
55
65
21
90
3
27
15
73
56
54
46
32
82
96
78
95
52
36
10
33
65
18
94
23
58
90
88
88
60
69
52
12
30
53
53
22
88
7
17
18
62
12
29
45
96
9
98
18
36
76
48
13
51
97
92
27
34
56
82
59
60
37
45
83
4
46
100
20
66
67
65
82
93
51
86
59
15
27
52
86
8
16
23
7
43
5
51
33
96
70
69
1
93
66
84
22
87
15
35
93
8
12
39
33
68
12
29
23
90
95
24
50
63
49
73
23
88
4
13
17
80
35
47
38
74
69
5
82
47
82
62
56
80
71
57
28
9
45
13
73
38
20
66
60
7
89
80
6
60
33
70
50
42
99
49
19
46
1
76
13
47
28
74
44
32
22
8
63
78
83
81
2
67
16
69
96
77
81
94
16
48
27
38
28
77
15
95
23
83
19
67
92
88
84
13
35
14
72
52
83
9
55
41
34
90
32
7
20
76
59
46
14
68
76
80
24
13
87
76
16
81
50
43
48
95
54
14
13
28
70
52
81
80
21
19
39
34
67
18
74
17
53
68
41
81
32
93
20
69
4
60
92
5
94
41
9
32
76
25
37
57
53
82
65
40
31
53
36
45
78
88
88
92
51
4
90
75
23
94
66
53
31
1
36
72
47
37
19
39
50
43
60
65
29
2
63
21
82
74
11
65
12
35
92
13
71
52
25
52
70
24
27
41
21
43
51
32
98
91
11
28
80
10
81
84
80
79
95
14
56
16
86
92
74
6
86
16
75
70
62
34
61
9
78
100
76
82
39
91
86
80
39
3
59
96
83
86
68
57
95
4
54
92
68
76
53
68
58
48
12
9
99
8
91
26
57
43
91
29
91
19
12
76
39
19
77
65
15
20
73
61
34
58
66
55
8
66
14
53
74
69
67
29
39
27
80
78
24
6
4
82
94
1
22
64
89
23
31
30
45
91
83
58
35
3
26
3
4
83
66
7
62
4
51
64
100
18
93
43
64
53
11
86
37
65
88
30
41
60
3
72
51
53
99
17
38
20
53
85
52
7
16
28
82
45
88
29
69
94
59
24
57
58
49
35
22
19
6
74
93
97
30
99
61
89
92
49
23
58
88
81
43
57
92
24
48
84
62
44
64
54
44
5
70
10
8
11
18
19
15
25
13
19
58
51
16
7
89
43
12
66
56
68
16
96
66
20
83
64
41
48
20
77
91
60
46
43
35
64
75
25
78
87
47
6
75
26
64
28
85
14
80
96
60
10
51
76
72
64
35
4
98
83
38
97
10
19
74
29
82
98
23
55
56
83
93
63
73
18
67
12
6
3
23
99
48
56
79
100
39
83
28
11
95
8
22
2
56
27
73
61
26
9
13
20
47
2
12
33
46
55
58
57
40
35
30
51
9
34
98
15
12
91
98
20
99
54
2
45
14
27
46
47
93
50
40
28
17
81
58
13
44
24
54
89
39
42
42
6
52
37
17
7
57
63
16
9
83
56
15
50
54
12
67
74
69
93
33
54
24
18
94
73
25
56
54
36
89
15
24
70
90
96
40
33
69
79
92
84
80
89
1
90
94
13
50
44
2
79
80
89
64
51
84
64
85
1
75
89
52
14
69
69
88
14
25
54
88
22
12
17
24
64
91
62
86
28
23
37
92
93
8
87
74
71
59
88
90
54
77
79
32
48
26
52
72
53
43
36
87
48
32
56
39
15
49
45
54
20
28
56
6
2
33
35
58
19
42
62
69
47
14
21
69
35
52
31
47
7
25
41
9
96
24
53
7
52
79
27
13
48
80
13
91
45
49
96
79
71
94
80
18
56
98
99
49
52
56
52
8
73
41
83
33
28
84
59
68
12
61
22
63
82
23
33
35
99
30
2
66
71
13
59
40
70
31
80
32
96
40
93
20
61
92
51
69
31
85
39
68
37
15
78
47
34
32
46
47
88
33
36
3
48
84
41
82
67
21
7
90
4
76
12
44
88
60
95
44
48
86
62
77
28
39
87
29
80
56
76
62
81
85
56
91
14
26
72
58
90
46
20
96
71
81
75
16
27
71
94
81
60
25
68
15
35
11
35
17
30
86
53
98
84
75
81
70
66
5
86
65
87
41
41
98
8
47
100
86
54
94
74
31
65
54
78
52
7
56
51
57
52
35
21
20
80
5
92
50
52
29
25
3
40
65
78
87
38
76
62
49
99
74
10
70
79
19
55
27
40
73
76
27
96
48
97
88
57
4
58
21
23
68
33
38
20
5
63
80
42
73
26
99
22
71
3
76
53
68
92
37
89
92
22
72
54
58
69
63
14
80
57
48
22
68
98
34
58
78
19
91
76
63
81
75
35
72
12
60
39
25
94
79
86
91
58
30
89
22
7
44
97
15
73
67
91
58
12
41
43
48
72
10
15
26
66
35
63
45
35
99
59
40
19
65
7
23
73
63
59
4
61
70
16
30
9
64
60
30
60
29
86
71
46
60
65
74
33
4
99
74
68
57
77
71
43
11
18
82
26
90
45
85
83
67
25
47
95
32
21
30
65
11
47
90
37
32
81
44
85
50
82
83
48
58
9
70
92
61
20
84
10
26
10
85
66
92
38
48
86
53
65
39
10
78
99
48
15
92
82
20
97
34
31
29
40
60
20
15
93
37
16
15
58
81
25
67
56
29
83
79
83
45
27
52
16
61
19
4
54
19
85
73
28
43
14
2
94
50
93
90
21
17
75
38
16
99
35
56
9
84
69
54
31
32
90
81
86
15
95
61
50
38
70
11
33
44
31
86
29
69
89
27
76
55
13
74
96
44
47
74
67
82
25
38
82
55
46
29
55
63
97
24
23
3
77
80
88
51
1
57
89
84
34
68
48
17
84
30
56
81
66
73
50
67
16
40
59
70
9
43
5
60
60
27
89
69
60
97
37
16
77
43
88
89
11
82
57
79
21
83
13
61
27
33
67
32
16
76
22
35
87
62
40
12
98
32
70
35
54
4
45
93
2
5
51
19
66
62
99
69
29
92
87
46
66
79
59
82
84
25
71
24
13
56
46
33
93
58
59
41
78
76
12
73
37
18
86
12
63
84
70
83
83
26
24
96
7
9
4
23
3
27
15
73
11
37
81
58
90
5
2
84
45
76
61
77
51
42
3
62
81
54
72
56
35
9
22
40
63
12
35
97
86
29
52
89
73
7
16
5
53
1
17
71
91
12
48
71
72
22
4
14
56
44
61
46
42
41
40
40
12
39
75
74
21
2
26
91
64
62
5
49
47
50
2
84
86
34
62
90
14
40
89
8
44
59
27
3
65
17
66
12
99
59
76
21
87
65
82
96
30
16
49
45
59
15
96
53
31
4
97
40
47
28
70
60
13
98
83
55
80
40
68
46
98
20
45
8
84
1
48
32
87
73
68
22
35
61
93
80
39
28
18
77
76
34
61
61
39
2
55
71
23
71
19
49
11
15
65
48
74
45
80
79
4
5
100
64
7
76
10
8
80
96
46
60
61
45
84
61
51
84
81
72
87
58
73
78
89
40
44
57
17
100
72
69
83
98
68
88
89
16
99
20
55
68
57
38
82
5
23
17
42
57
35
56
83
81
38
69
83
26
81
75
73
61
83
79
46
82
97
95
88
11
77
60
49
12
21
66
6
59
48
74
37
2
87
70
15
68
92
48
85
32
18
97
2
11
6
8
85
63
74
6
8
83
61
64
59
69
24
75
97
13
34
15
3
11
77
52
57
10
71
69
20
77
4
38
6
39
44
21
69
52
21
89
39
58
79
49
36
70
64
92
86
25
9
69
1
91
42
57
35
59
74
81
55
87
21
91
70
44
55
97
83
91
72
22
84
47
11
32
87
95
87
13
16
90
4
27
5
22
72
75
79
72
50
45
6
74
28
47
75
44
99
68
13
42
34
89
2
65
12
60
22
46
94
39
66
18
90
21
6
3
84
32
49
16
50
59
14
96
17
36
57
17
35
6
14
61
43
53
58
62
21
51
13
58
19
71
1
42
53
69
13
12
19
24
77
72
16
60
86
35
67
53
93
60
82
18
65
25
50
2
12
87
36
44
43
73
6
1
56
55
98
61
19
15
73
75
54
29
86
100
86
10
19
93
28
88
46
19
32
34
19
52
17
7
5
27
71
76
26
98
26
59
53
11
96
89
31
9
74
7
63
24
60
2
95
10
69
64
25
21
24
7
93
43
54
79
76
31
66
73
21
70
29
80
79
24
72
66
59
50
97
96
24
61
22
23
14
19
72
93
82
77
95
87
78
13
55
28
74
17
43
44
3
86
27
66
29
95
46
12
2
30
98
94
78
57
46
66
34
45
73
66
93
12
39
83
35
43
83
52
28
14
49
93
75
25
64
21
77
30
77
80
89
78
90
24
60
56
17
85
94
78
38
16
99
3
71
45
45
99
92
51
33
46
19
45
17
5
53
6
78
8
7
18
23
69
8
84
94
90
28
37
30
37
19
100
27
73
60
68
34
49
29
38
53
13
96
43
39
93
11
30
41
30
56
8
90
76
25
61
5
34
12
38
8
50
37
25
76
82
97
69
77
45
57
62
2
85
5
36
80
100
94
95
7
80
89
67
75
75
47
70
39
65
42
96
42
23
99
36
8
43
36
43
10
70
32
73
35
53
57
72
43
61
78
42
39
86
1
44
16
37
15
18
6
28
46
12
39
61
10
95
1
39
16
96
3
42
3
5
60
12
25
79
11
88
5
12
91
58
96
60
61
49
14
74
40
45
58
81
53
77
8
9
35
25
64
84
7
85
53
38
85
84
32
40
59
98
42
20
88
4
22
15
64
73
86
9
11
68
66
60
16
79
99
7
62
100
99
46
74
74
42
8
36
40
63
36
40
26
33
61
98
65
44
1
34
58
28
85
84
100
43
38
87
78
15
10
63
54
54
89
34
76
93
26
21
9
13
52
10
48
65
73
42
60
96
15
75
84
52
31
91
49
99
37
29
70
70
51
30
92
80
30
23
80
52
66
34
45
8
99
23
70
45
84
15
38
23
75
46
30
78
95
21
76
48
70
60
11
58
11
96
77
51
43
53
42
24
28
61
54
49
85
58
25
63
29
81
54
57
66
38
16
64
32
95
6
68
46
65
77
19
92
72
42
80
62
83
59
54
28
64
98
59
91
86
61
51
84
8
98
24
61
65
7
45
96
47
62
62
32
25
47
4
63
71
95
65
51
1
80
59
85
7
31
74
7
75
30
23
1
36
8
16
11
59
28
87
63
61
66
40
27
1
40
91
7
44
44
69
63
37
31
53
82
87
79
100
76
2
69
80
94
7
9
98
94
48
76
20
88
6
65
64
48
99
40
50
65
77
71
1
50
11
87
42
4
57
11
41
33
24
56
5
94
13
45
69
74
33
35
59
35
54
43
21
25
61
55
18
59
8
63
92
99
75
38
81
100
21
42
4
29
7
25
29
72
65
94
51
53
88
74
8
72
62
65
36
79
36
76
1
31
47
83
69
12
29
75
26
87
33
69
80
51
71
19
39
65
90
34
94
73
36
91
53
9
77
55
50
74
52
16
96
80
36
79
10
48
33
21
96
64
6
51
96
83
17
57
50
30
66
19
91
13
1
67
51
67
47
3
13
49
30
45
20
84
37
81
87
47
65
49
81
80
3
9
44
86
37
30
5
52
31
1
25
46
39
61
46
29
50
57
100
86
28
4
31
81
94
84
63
16
39
58
4
17
4
48
76
99
41
97
45
53
72
81
87
78
5
66
93
35
10
18
28
44
75
50
81
20
60
71
25
28
1
29
4
28
46
3
61
27
74
53
52
17
53
44
67
61
7
1
74
95
3
96
5
60
93
76
20
89
45
48
40
67
2
18
49
32
50
68
88
55
86
53
70
50
66
13
74
1
28
65
20
59
87
55
4
9
85
23
34
82
39
64
74
23
39
25
5
17
9
69
23
80
6
77
48
19
54
92
66
35
23
72
67
31
65
43
82
86
92
57
66
58
73
28
46
60
6
68
59
44
40
26
64
2
81
79
89
85
3
17
78
66
96
86
62
73
82
89
69
36
87
43
79
22
53
77
29
