Case #1: 2
Case #2: 10
Case #3: 21
Case #4: 12
Case #5: 33
Case #6: 6
Case #7: 29
Case #8: 6
Case #9: 44
Case #10: 70
Case #11: 23
Case #12: 1
Case #13: 72
Case #14: 16
Case #15: 12
Case #16: 61
Case #17: 19
Case #18: 30
Case #19: 47
Case #20: 11
Case #21: 66
Case #22: 39
Case #23: 48
Case #24: 3
Case #25: 49
Case #26: 48
Case #27: 26
Case #28: 60
Case #29: 26
Case #30: 37
Case #31: 52
Case #32: 61
Case #33: 11
Case #34: 37
Case #35: 17
Case #36: 71
Case #37: 34
Case #38: 75
Case #39: 55
Case #40: 25
Case #41: 62
Case #42: 12
Case #43: 33
Case #44: 49
Case #45: 18
Case #46: 76
Case #47: 29
Case #48: 1
Case #49: 9
Case #50: 42
Case #51: 29
Case #52: 49
Case #53: 32
Case #54: 27
Case #55: 7
Case #56: 10
Case #57: 54
Case #58: 50
Case #59: 8
Case #60: 2
Case #61: 37
Case #62: 48
Case #63: 19
Case #64: 20
Case #65: 66
Case #66: 35
Case #67: 26
Case #68: 28
Case #69: 21
Case #70: 62
Case #71: 55
Case #72: 54
Case #73: 18
Case #74: 11
Case #75: 32
Case #76: 29
Case #77: 69
Case #78: 13
Case #79: 46
Case #80: 60
Case #81: 41
Case #82: 75
Case #83: 1
Case #84: 48
Case #85: 26
Case #86: 76
Case #87: 73
Case #88: 22
Case #89: 15
Case #90: 39
Case #91: 16
Case #92: 23
Case #93: 22
Case #94: 57
Case #95: 32
Case #96: 21
Case #97: 7
Case #98: 29
Case #99: 23
Case #100: 66
Case #101: 34
Case #102: 48
Case #103: 64
Case #104: 50
Case #105: 40
Case #106: 3
Case #107: 45
Case #108: 1
Case #109: 59
Case #110: 30
Case #111: 52
Case #112: 54
Case #113: 72
Case #114: 1
Case #115: 68
Case #116: 10
Case #117: 64
Case #118: 53
Case #119: 52
Case #120: 53
Case #121: 22
Case #122: 73
Case #123: 24
Case #124: 54
Case #125: 10
Case #126: 61
Case #127: 48
Case #128: 3
Case #129: 9
Case #130: 61
Case #131: 4
Case #132: 53
Case #133: 9
Case #134: 23
Case #135: 23
Case #136: 4
Case #137: 57
Case #138: 52
Case #139: 23
Case #140: 4
Case #141: 23
Case #142: 56
Case #143: 16
Case #144: 2
Case #145: 19
Case #146: 16
Case #147: 26
Case #148: 69
Case #149: 69
Case #150: 60
Case #151: 4
Case #152: 23
Case #153: 33
Case #154: 40
Case #155: 46
Case #156: 43
Case #157: 66
Case #158: 24
Case #159: 13
Case #160: 36
Case #161: 43
Case #162: 21
Case #163: 2
Case #164: 71
Case #165: 72
Case #166: 63
Case #167: 15
Case #168: 64
Case #169: 29
Case #170: 72
Case #171: 3
Case #172: 23
Case #173: 67
Case #174: 4
Case #175: 57
Case #176: 16
Case #177: 13
Case #178: 65
Case #179: 23
Case #180: 55
Case #181: 58
Case #182: 72
Case #183: 66
Case #184: 40
Case #185: 39
Case #186: 65
Case #187: 38
Case #188: 57
Case #189: 43
Case #190: 37
Case #191: 30
Case #192: 52
Case #193: 43
Case #194: 8
Case #195: 38
Case #196: 57
Case #197: 31
Case #198: 48
Case #199: 45
Case #200: 14
Case #201: 28
Case #202: 24
Case #203: 74
Case #204: 41
Case #205: 45
Case #206: 71
Case #207: 28
Case #208: 31
Case #209: 28
Case #210: 65
Case #211: 23
Case #212: 5
Case #213: 64
Case #214: 5
Case #215: 11
Case #216: 42
Case #217: 6
Case #218: 23
Case #219: 61
Case #220: 12
Case #221: 6
Case #222: 17
Case #223: 62
Case #224: 63
Case #225: 37
Case #226: 7
Case #227: 41
Case #228: 50
Case #229: 66
Case #230: 11
Case #231: 58
Case #232: 30
Case #233: 43
Case #234: 62
Case #235: 35
Case #236: 20
Case #237: 40
Case #238: 39
Case #239: 33
Case #240: 16
Case #241: 27
Case #242: 55
Case #243: 61
Case #244: 57
Case #245: 53
Case #246: 13
Case #247: 63
Case #248: 33
Case #249: 65
Case #250: 59
Case #251: 14
Case #252: 44
Case #253: 60
Case #254: 7
Case #255: 23
Case #256: 72
Case #257: 67
Case #258: 48
Case #259: 54
Case #260: 25
Case #261: 24
Case #262: 33
Case #263: 7
Case #264: 59
Case #265: 54
Case #266: 11
Case #267: 34
Case #268: 57
Case #269: 65
Case #270: 9
Case #271: 26
Case #272: 14
Case #273: 14
Case #274: 2
Case #275: 55
Case #276: 35
Case #277: 60
Case #278: 40
Case #279: 73
Case #280: 57
Case #281: 26
Case #282: 41
Case #283: 3
Case #284: 29
Case #285: 67
Case #286: 42
Case #287: 54
Case #288: 68
Case #289: 70
Case #290: 24
Case #291: 64
Case #292: 8
Case #293: 5
Case #294: 1
Case #295: 61
Case #296: 47
Case #297: 33
Case #298: 13
Case #299: 50
Case #300: 72
Case #301: 66
Case #302: 34
Case #303: 35
Case #304: 70
Case #305: 59
Case #306: 11
Case #307: 55
Case #308: 13
Case #309: 6
Case #310: 57
Case #311: 60
Case #312: 23
Case #313: 8
Case #314: 15
Case #315: 43
Case #316: 76
Case #317: 4
Case #318: 67
Case #319: 30
Case #320: 61
Case #321: 16
Case #322: 22
Case #323: 66
Case #324: 12
Case #325: 30
Case #326: 74
Case #327: 25
Case #328: 34
Case #329: 76
Case #330: 12
Case #331: 30
Case #332: 29
Case #333: 32
Case #334: 34
Case #335: 22
Case #336: 21
Case #337: 1
Case #338: 22
Case #339: 1
Case #340: 71
Case #341: 36
Case #342: 73
Case #343: 56
Case #344: 43
Case #345: 66
Case #346: 56
Case #347: 52
Case #348: 56
Case #349: 33
Case #350: 48
Case #351: 74
Case #352: 26
Case #353: 37
Case #354: 33
Case #355: 55
Case #356: 45
Case #357: 27
Case #358: 73
Case #359: 4
Case #360: 20
Case #361: 38
Case #362: 29
Case #363: 19
Case #364: 36
Case #365: 64
Case #366: 2
Case #367: 38
Case #368: 38
Case #369: 52
Case #370: 62
Case #371: 47
Case #372: 51
Case #373: 60
Case #374: 73
Case #375: 4
Case #376: 41
Case #377: 74
Case #378: 65
Case #379: 24
Case #380: 43
Case #381: 30
Case #382: 60
Case #383: 72
Case #384: 24
Case #385: 21
Case #386: 26
Case #387: 36
Case #388: 42
Case #389: 37
Case #390: 3
Case #391: 67
Case #392: 63
Case #393: 70
Case #394: 66
Case #395: 22
Case #396: 33
Case #397: 51
Case #398: 30
Case #399: 44
Case #400: 61
Case #401: 54
Case #402: 67
Case #403: 3
Case #404: 11
Case #405: 12
Case #406: 68
Case #407: 48
Case #408: 16
Case #409: 13
Case #410: 14
Case #411: 56
case 412
Case #412: 22
Case #413: 16
Case #414: 65
Case #415: 65
Case #416: 11
Case #417: 8
Case #418: 10
Case #419: 50
Case #420: 60
Case #421: 61
Case #422: 14
Case #423: 30
Case #424: 7
Case #425: 55
Case #426: 57
Case #427: 19
Case #428: 65
Case #429: 16
Case #430: 12
Case #431: 28
Case #432: 68
Case #433: 61
Case #434: 43
Case #435: 45
Case #436: 33
Case #437: 44
Case #438: 58
Case #439: 34
Case #440: 23
Case #441: 52
Case #442: 54
Case #443: 46
Case #444: 56
Case #445: 21
Case #446: 5
Case #447: 1
Case #448: 47
Case #449: 34
Case #450: 58
Case #451: 35
Case #452: 59
Case #453: 4
Case #454: 68
Case #455: 3
Case #456: 39
Case #457: 14
Case #458: 38
Case #459: 41
Case #460: 60
Case #461: 4
Case #462: 40
Case #463: 29
Case #464: 51
Case #465: 42
Case #466: 35
Case #467: 60
Case #468: 8
Case #469: 43
Case #470: 21
Case #471: 29
Case #472: 69
Case #473: 55
Case #474: 30
Case #475: 21
Case #476: 24
Case #477: 2
Case #478: 63
Case #479: 66
Case #480: 61
Case #481: 36
Case #482: 5
Case #483: 49
Case #484: 66
Case #485: 29
Case #486: 8
Case #487: 26
Case #488: 43
Case #489: 45
Case #490: 11
Case #491: 75
Case #492: 34
Case #493: 4
Case #494: 25
Case #495: 6
Case #496: 25
Case #497: 57
Case #498: 54
Case #499: 41
Case #500: 15
